<?xml version="1.0" encoding="utf-8"?>
<!-- Generator: Adobe Illustrator 16.0.3, SVG Export Plug-In . SVG Version: 6.00 Build 0)  -->
<!DOCTYPE svg PUBLIC "-//W3C//DTD SVG 1.1//EN" "http://www.w3.org/Graphics/SVG/1.1/DTD/svg11.dtd">
<svg version="1.1" id="Capybara" xmlns="http://www.w3.org/2000/svg" xmlns:xlink="http://www.w3.org/1999/xlink" x="0px" y="0px"
	 width="511.92px" height="511.92px" viewBox="0 0 511.92 511.92" enable-background="new 0 0 511.92 511.92" xml:space="preserve">
<path fill-rule="evenodd" clip-rule="evenodd" d="M162.511,156.276c-6.183-23.437-13.125-54.21-2.632-77.423
	c6.439-14.242,17.746-2.496,25.29,4.222c11.574,10.309,19.557,24.095,25.637,38.43L162.511,156.276z"/>
<path fill-rule="evenodd" clip-rule="evenodd" d="M350.507,156.276c6.184-23.437,13.125-54.21,2.633-77.423
	c-6.44-14.242-17.746-2.496-25.289,4.222c-11.576,10.309-19.559,24.095-25.639,38.43L350.507,156.276z"/>
<path fill-rule="evenodd" clip-rule="evenodd" fill="#FFFFFF" stroke="#000000" stroke-width="22.9096" stroke-miterlimit="10" d="
	M265.332,92.207c43.575,0,60.785,43.005,79.898,80.588c20.095,39.514,40.486,79.366,50.511,124.099
	c10.318,46.028-15.059,74.678-45.555,99.354c-16.681,13.498-30.441,26.992-49.803,35.732c-18.063,8.155-35.115,7.355-54.061,7.801
	c-41.119,0.967-78.589-33.488-108.235-63.072c-32.876-32.805-27.26-72.295-12.756-114.125
	c14.47-41.735,34.691-80.489,55.128-118.701C202.454,102.762,224.107,92.207,265.332,92.207z"/>
<g>
	<path d="M296.344,379.11c0.538,1.115,0.806,2.256,1.088,3.461c0.226,1.194,0.327,2.434,0.289,3.707
		c-0.012,0.639-0.081,1.29-0.163,1.942c-0.125,0.649-0.248,1.316-0.424,1.987c-0.384,1.336-0.967,2.677-1.761,3.998
		c-0.815,1.305-1.884,2.532-3.126,3.631c-0.635,0.52-1.308,1.053-2.016,1.479l-1.089,0.608l-0.558,0.296l-0.282,0.146l-0.142,0.072
		l-0.07,0.036l-0.036,0.018l-0.018,0.01c-0.821,0.201-0.234,0.059-0.42,0.105c-0.472,0.23-0.938,0.48-1.415,0.688l-0.355,0.161
		l-0.179,0.081l-0.267,0.082l-1.114,0.318l-1.133,0.303c-0.36,0.092-0.814,0.21-1.092,0.266c-0.626,0.147-1.259,0.249-1.895,0.364
		c-1.287,0.24-2.461,0.338-3.716,0.503c-1.189,0.076-2.409,0.138-3.583,0.155c-1.168,0.008-2.361,0.044-3.496-0.054
		c-1.157-0.058-2.296-0.146-3.425-0.25c-1.146-0.068-2.238-0.286-3.359-0.435c-1.103-0.187-2.213-0.358-3.308-0.57
		c-1.095-0.223-2.176-0.497-3.265-0.765l-1.642-0.428c-0.57-0.156-1.061-0.28-1.76-0.499l3.368,0.522l-0.046-0.001l3.367-0.522
		l-1.762,0.494l-1.641,0.428c-1.091,0.263-2.167,0.553-3.267,0.755c-1.095,0.212-2.205,0.384-3.308,0.57
		c-1.119,0.158-2.214,0.355-3.36,0.427c-1.129,0.105-2.267,0.193-3.423,0.252c-1.134,0.1-2.33,0.047-3.497,0.048
		c-1.173-0.02-2.392-0.071-3.582-0.16c-1.254-0.163-2.427-0.26-3.714-0.499c-0.636-0.109-1.268-0.224-1.893-0.368
		c-0.633-0.145-1.314-0.351-1.958-0.529c-1.256-0.315-2.705-0.898-3.995-1.465c0.464,0.145-0.65-0.205-0.539-0.172l-0.01-0.007
		l-0.02-0.014l-0.041-0.027l-0.082-0.056l-0.163-0.109l-0.327-0.221l-0.654-0.44l-0.163-0.11l-0.309-0.191l-0.631-0.406
		c-0.417-0.272-0.814-0.574-1.201-0.87c-0.42-0.303-0.691-0.596-0.973-0.89l-0.83-0.888c-0.547-0.587-0.969-1.25-1.398-1.892
		c-0.793-1.318-1.379-2.654-1.761-3.99c-0.176-0.671-0.3-1.336-0.427-1.984c-0.083-0.651-0.15-1.303-0.164-1.939
		c-0.04-1.273,0.06-2.511,0.284-3.704c0.279-1.208,0.544-2.336,1.079-3.467l1.232-0.051c0.086,0.945,0.272,1.943,0.505,2.896
		c0.231,0.96,0.548,1.895,0.91,2.803c0.18,0.455,0.406,0.887,0.604,1.331c0.241,0.42,0.469,0.848,0.723,1.256
		c0.53,0.802,1.118,1.556,1.792,2.213c0.668,0.655,1.427,1.237,2.21,1.688c0.413,0.19,0.749,0.422,1.213,0.595l1.376,0.466
		c0.954,0.166,1.876,0.422,2.864,0.472c0.488,0.039,0.97,0.108,1.462,0.126l1.48,0.028c0.984,0.036,1.984-0.062,2.974-0.084
		c0.994-0.093,1.99-0.141,2.983-0.262c1.989-0.228,3.976-0.517,5.952-0.899c1.977-0.367,3.945-0.803,5.901-1.29
		c1.951-0.483,3.914-1.021,5.805-1.612l0.183-0.058h0.191l0.046-0.001h0.185l0.189,0.059c1.892,0.589,3.854,1.129,5.805,1.611
		c1.955,0.487,3.924,0.923,5.9,1.29c1.976,0.383,3.963,0.672,5.951,0.899c0.994,0.12,1.989,0.171,2.984,0.261
		c0.989,0.022,1.989,0.119,2.974,0.084l1.48-0.028c0.489-0.018,0.949-0.085,1.428-0.122c0.926-0.035,1.962-0.311,2.951-0.488
		l1.271-0.432c0.437-0.16,0.831-0.411,1.253-0.609c0.805-0.464,1.548-1.035,2.22-1.695c0.675-0.656,1.263-1.41,1.793-2.212
		c0.254-0.408,0.481-0.836,0.723-1.256c0.199-0.443,0.425-0.876,0.604-1.331c0.729-1.808,1.228-3.767,1.416-5.705L296.344,379.11z"
		/>
</g>
<path d="M216.557,279.7c0,0,6.758,15.367,17.423,24.012c8.057,6.535,18.58,8.045,21.32,8.295c0.39,0.035,1.124-0.007,1.423-0.047
	c3.571-0.441,13.762-2.184,21.241-8.248c10.666-8.645,17.422-24.012,17.422-24.012l-0.014-0.01c1.197-2.63-0.139-4.836-2.276-6.338
	l-31.886-29.881c-2.141-1.499-5.63-1.473-7.757,0.063l-34.655,29.761C216.671,274.828,215.35,277.067,216.557,279.7z"/>
<g>
	<g>
		<path fill="#FFFFFF" d="M175.668,217.216c-1.078,0-2.163-0.1-3.223-0.297c-12.313-2.292-19.735-16.783-16.897-32.991
			c2.558-14.606,12.623-25.208,23.933-25.208c1.078,0,2.162,0.1,3.222,0.297c12.314,2.293,19.736,16.785,16.896,32.993
			C197.042,206.615,186.978,217.216,175.668,217.216z"/>
		<path d="M179.481,164.121c0.743,0,1.489,0.067,2.234,0.206c9.225,1.718,14.852,13.696,12.565,26.752
			c-2.102,12.002-10.158,20.737-18.612,20.737c-0.743,0-1.489-0.067-2.235-0.206c-9.226-1.717-14.852-13.693-12.566-26.75
			C162.97,172.858,171.027,164.121,179.481,164.121 M179.481,153.32L179.481,153.32c-13.939,0-26.241,12.481-29.252,29.676
			c-3.355,19.159,5.97,36.392,21.228,39.231c1.386,0.258,2.803,0.389,4.211,0.389c13.938,0,26.239-12.48,29.25-29.674
			c3.356-19.158-5.967-36.392-21.227-39.233C182.306,153.45,180.89,153.32,179.481,153.32L179.481,153.32z"/>
	</g>
	<path d="M167.738,193.697c1.752-9.993,8.894-17.028,15.956-15.714c7.059,1.317,11.366,10.482,9.614,20.471
		c-1.75,9.991-8.893,17.03-15.953,15.713C170.296,212.854,165.988,203.688,167.738,193.697z"/>
</g>
<g>
	<g>
		<path fill="#FFFFFF" d="M335.288,217.216c-11.308,0-21.372-10.6-23.932-25.205c-2.838-16.208,4.584-30.701,16.898-32.993
			c1.061-0.197,2.145-0.297,3.223-0.297c11.308,0,21.372,10.601,23.931,25.208c2.839,16.208-4.583,30.699-16.897,32.991
			C337.45,217.116,336.366,217.216,335.288,217.216L335.288,217.216z"/>
		<path d="M331.478,164.121c8.452,0,16.509,8.737,18.611,20.739c2.287,13.057-3.34,25.033-12.566,26.75
			c-0.745,0.139-1.491,0.206-2.234,0.206c-8.452,0-16.509-8.735-18.612-20.737c-2.286-13.056,3.341-25.034,12.567-26.752
			C329.988,164.188,330.734,164.121,331.478,164.121 M331.478,153.32c-1.409,0-2.825,0.131-4.211,0.388
			c-15.26,2.841-24.585,20.075-21.229,39.233c3.013,17.195,15.314,29.675,29.251,29.675c1.408,0,2.825-0.13,4.211-0.389
			c15.26-2.84,24.585-20.073,21.229-39.232C357.716,165.8,345.414,153.32,331.478,153.32L331.478,153.32z"/>
	</g>
	<path d="M343.219,193.697c-1.753-9.993-8.895-17.028-15.956-15.714c-7.059,1.317-11.365,10.482-9.613,20.471
		c1.748,9.991,8.893,17.03,15.953,15.713C340.661,212.854,344.969,203.688,343.219,193.697z"/>
</g>
<g>
	<path d="M255.92,389.049l34,9.654c0,0-5.752,5.08-14.822,7.938c-7.84,2.47-19.178,2.772-19.178,2.772h0.929
		c0,0-11.339-0.303-19.178-2.772c-9.069-2.858-14.823-7.938-14.823-7.938L255.92,389.049z"/>
</g>
<g>
	<path d="M289.898,250.7c0,0,0.214,0.067,0.604,0.225c0.381,0.168,0.965,0.387,1.65,0.751c0.693,0.355,1.544,0.788,2.46,1.371
		c0.927,0.572,1.946,1.263,3.002,2.1c0.539,0.407,1.072,0.864,1.617,1.352c0.559,0.474,1.098,1.006,1.645,1.569
		c0.567,0.543,1.092,1.158,1.627,1.799c0.561,0.616,1.05,1.322,1.557,2.039c1.019,1.43,1.913,3.066,2.645,4.844
		c0.359,0.889,0.636,1.851,0.918,2.796l0.264,1.494l0.126,0.751l0.03,0.188l0.016,0.095l0.008,0.047
		c-0.011-0.176,0.019,0.266,0.016,0.227l0.001,0.021l0.013,0.321l0.026,1.285c0,0.223,0.017,0.409,0.003,0.661l-0.063,0.797
		c-0.044,0.531-0.094,1.061-0.161,1.585c-0.063,0.528-0.193,0.954-0.287,1.432c-0.105,0.463-0.211,0.924-0.315,1.383
		c-0.146,0.438-0.292,0.875-0.437,1.309c-0.271,0.877-0.614,1.694-0.978,2.487c-0.7,1.594-1.526,3.034-2.366,4.344
		c-0.846,1.309-1.724,2.477-2.582,3.508c-0.86,1.03-1.696,1.928-2.476,2.685c-0.767,0.767-1.496,1.378-2.094,1.877
		c-0.586,0.508-1.105,0.854-1.438,1.104c-0.342,0.242-0.536,0.357-0.536,0.357s0.348-0.812,0.957-2.231
		c0.309-0.696,0.66-1.553,1.07-2.513c0.412-0.959,0.867-2.037,1.337-3.206c0.478-1.166,0.971-2.426,1.446-3.751
		c0.481-1.322,0.949-2.716,1.344-4.143c0.187-0.718,0.414-1.433,0.546-2.163c0.078-0.362,0.157-0.728,0.237-1.094
		c0.055-0.362,0.11-0.726,0.166-1.091c0.044-0.354,0.139-0.752,0.145-1.071c0.007-0.322,0.033-0.641,0.064-0.96l0.049-0.48
		c0.012-0.174-0.012-0.416-0.017-0.621l-0.051-1.285l-0.006-0.321v-0.02c-0.003-0.053,0.023,0.375,0.011,0.187l-0.005-0.032
		l-0.011-0.064l-0.021-0.13l-0.081-0.518l-0.148-1.037c-0.22-0.686-0.32-1.393-0.559-2.079c-0.471-1.376-1.008-2.75-1.675-4.06
		c-0.32-0.661-0.654-1.304-1.017-1.931c-0.176-0.316-0.35-0.63-0.521-0.939c-0.188-0.305-0.372-0.604-0.555-0.901
		c-0.349-0.608-0.726-1.179-1.094-1.735c-0.351-0.571-0.722-1.102-1.078-1.619c-0.342-0.528-0.695-1.017-1.03-1.488
		c-0.325-0.481-0.652-0.923-0.958-1.345c-0.608-0.846-1.143-1.598-1.599-2.207C290.423,251.41,289.898,250.7,289.898,250.7z"/>
</g>
<g>
	<path d="M221.052,253.285c0,0-0.524,0.709-1.441,1.95c-0.457,0.609-0.991,1.361-1.6,2.207c-0.305,0.423-0.632,0.864-0.958,1.345
		c-0.335,0.472-0.689,0.96-1.031,1.488c-0.356,0.518-0.728,1.048-1.078,1.619c-0.369,0.557-0.746,1.127-1.094,1.735
		c-0.183,0.296-0.367,0.597-0.555,0.901c-0.172,0.309-0.346,0.622-0.521,0.938c-0.363,0.628-0.697,1.271-1.018,1.931
		c-0.666,1.311-1.204,2.684-1.674,4.06c-0.239,0.688-0.338,1.394-0.559,2.079l-0.149,1.037l-0.08,0.518l-0.021,0.13l-0.01,0.064
		l-0.005,0.032c-0.013,0.188,0.014-0.238,0.011-0.187l0,0.02l-0.006,0.322l-0.051,1.284c-0.004,0.205-0.027,0.447-0.017,0.622
		l0.05,0.479c0.031,0.319,0.057,0.639,0.063,0.961c0.006,0.318,0.101,0.717,0.145,1.07c0.056,0.365,0.111,0.729,0.166,1.092
		c0.08,0.366,0.159,0.73,0.237,1.094c0.131,0.729,0.358,1.444,0.545,2.162c0.395,1.428,0.862,2.82,1.344,4.143
		c0.475,1.326,0.969,2.586,1.446,3.751c0.47,1.17,0.925,2.248,1.337,3.207c0.41,0.96,0.761,1.816,1.07,2.513
		c0.609,1.42,0.957,2.231,0.957,2.231s-0.194-0.115-0.536-0.357c-0.333-0.25-0.852-0.596-1.438-1.104
		c-0.598-0.499-1.327-1.11-2.094-1.877c-0.779-0.757-1.615-1.654-2.475-2.686c-0.859-1.03-1.737-2.199-2.582-3.508
		c-0.84-1.31-1.666-2.749-2.366-4.344c-0.363-0.792-0.707-1.61-0.977-2.487c-0.145-0.434-0.291-0.87-0.437-1.309
		c-0.104-0.459-0.209-0.92-0.315-1.383c-0.094-0.478-0.224-0.903-0.287-1.431c-0.068-0.524-0.118-1.055-0.162-1.586l-0.063-0.797
		c-0.013-0.252,0.003-0.438,0.003-0.661l0.026-1.285l0.013-0.321l0-0.02c-0.003,0.038,0.026-0.402,0.016-0.228l0.007-0.047
		l0.016-0.094l0.031-0.188l0.125-0.751l0.264-1.495c0.282-0.945,0.558-1.906,0.918-2.796c0.731-1.777,1.626-3.414,2.644-4.843
		c0.507-0.719,0.997-1.424,1.557-2.041c0.535-0.639,1.06-1.254,1.626-1.798c0.547-0.563,1.086-1.095,1.645-1.568
		c0.545-0.487,1.079-0.944,1.618-1.351c1.056-0.838,2.075-1.529,3.001-2.101c0.917-0.583,1.768-1.015,2.46-1.37
		c0.686-0.364,1.27-0.583,1.651-0.751C220.838,253.352,221.052,253.285,221.052,253.285z"/>
</g>
<path fill="#FFFFFF" d="M251.801,284.784c-0.026-0.301-0.025-0.783-0.112-1.305c-0.08-0.533-0.161-1.204-0.331-1.898
	c-0.161-0.704-0.386-1.46-0.667-2.258c-0.288-0.787-0.638-1.609-1.063-2.429c-0.434-0.813-0.916-1.649-1.502-2.434
	c-0.565-0.803-1.225-1.573-1.943-2.294c-0.723-0.733-1.531-1.384-2.39-2.012c-0.422-0.301-0.907-0.564-1.367-0.84
	c-0.237-0.137-0.451-0.27-0.716-0.387l-0.861-0.377l-0.855-0.355c-0.286-0.096-0.44-0.104-0.665-0.158l-0.619-0.129l-0.152-0.033
	l-0.039-0.006l-0.01-0.002c-0.1-0.037,0.21,0.084-0.227-0.086l-0.041-0.007l-0.173-0.03l-0.681-0.096
	c-1.802-0.207-3.362,0.326-4.425,1.002c-1.071,0.696-1.844,1.501-2.395,2.297c-0.038,0.055-0.068,0.105-0.104,0.16
	c-0.549,0.455-1.094,0.957-1.624,1.513c-3.899,4.089-5.562,9.277-3.713,11.591c1.849,2.313,6.507,0.875,10.406-3.215
	c1.769-1.855,3.072-3.936,3.8-5.873c0.458,0.289,0.913,0.592,1.361,0.904c2.924,1.956,5.576,4.479,7.497,6.422
	c0.962,0.979,1.762,1.795,2.321,2.367c0.543,0.589,0.855,0.926,0.855,0.926l0.437-0.469
	C251.806,285.274,251.815,285.092,251.801,284.784z"/>
<path fill="#FFFFFF" d="M282.466,272.621c-0.314-0.329-0.635-0.636-0.957-0.93c-0.144-0.247-0.296-0.494-0.473-0.743
	c-0.551-0.796-1.321-1.601-2.395-2.297c-1.063-0.676-2.622-1.209-4.424-1.002l-0.682,0.096l-0.172,0.03l-0.043,0.007
	c-0.436,0.17-0.124,0.049-0.225,0.086l-0.011,0.002l-0.038,0.006l-0.152,0.033l-0.619,0.129c-0.226,0.055-0.379,0.063-0.664,0.158
	l-0.855,0.355l-0.863,0.377c-0.264,0.117-0.478,0.25-0.715,0.387c-0.459,0.275-0.945,0.539-1.365,0.84
	c-0.861,0.628-1.668,1.278-2.391,2.012c-0.718,0.721-1.379,1.491-1.942,2.294c-0.587,0.784-1.069,1.62-1.502,2.434
	c-0.425,0.819-0.778,1.642-1.064,2.429c-0.282,0.798-0.505,1.554-0.664,2.258c-0.173,0.694-0.255,1.365-0.334,1.898
	c-0.085,0.521-0.085,1.004-0.111,1.305c-0.015,0.308-0.005,0.49-0.005,0.49l0.438,0.469c0,0,0.312-0.337,0.855-0.926
	c0.559-0.572,1.357-1.389,2.32-2.367c1.922-1.942,4.572-4.466,7.5-6.422c0.363-0.255,0.736-0.513,1.111-0.755
	c0.738,1.893,2.023,3.915,3.748,5.724c3.898,4.09,8.557,5.527,10.404,3.215C288.026,281.898,286.364,276.71,282.466,272.621z"/>
<path d="M280.786,300.084c0,0-12.824,29.974-19.178,59.148c-6.023,27.663-5.59,42.675-5.59,42.675h-0.058
	c0,0,0.434-15.012-5.589-42.675c-6.353-29.175-19.179-59.148-19.179-59.148H280.786z"/>
<g>
	<path d="M294.42,442.094c0,0,0.621-2.037,1.786-5.856c1.213-3.791,2.929-9.374,5.043-16.461c2.133-7.075,4.68-15.652,7.31-25.492
		c1.337-4.91,2.655-10.15,3.947-15.664c1.322-5.504,2.571-11.299,3.678-17.335c1.149-6.019,2.168-12.284,2.879-18.72
		c0.731-6.426,1.259-13.018,1.242-19.629c-0.048-6.601-0.4-13.228-1.646-19.494c-0.61-3.129-1.438-6.152-2.434-9.016
		c-0.508-1.422-1.038-2.823-1.654-4.149c-0.294-0.675-0.618-1.322-0.948-1.963l-0.121-0.242l-0.06-0.121
		c-0.093-0.196,0.061,0.136,0.009,0.039l-0.367-0.646c-0.23-0.381-0.276-0.384-0.502-0.736c-0.796-1.198-1.744-2.543-2.771-3.913
		c-1.066-1.399-2.137-2.805-3.211-4.215c-2.223-2.858-4.609-5.739-7.096-8.582c-2.515-2.821-4.979-5.73-7.6-8.519
		c-2.589-2.814-5.299-5.528-7.986-8.224c-2.679-2.697-5.413-5.321-8.188-7.771c-1.385-1.227-2.778-2.414-4.172-3.545
		c-1.391-1.136-2.744-2.26-4.103-3.278c-2.687-2.038-5.408-3.813-7.545-4.848c-1.034-0.519-1.963-0.82-2.297-0.941
		c-0.19-0.073-0.175-0.043,0-0.049c0.066,0.012,0.134,0.016,0.202,0.011c0.065-0.005,0.204,0.017,0.303,0.007l0.081-0.005
		c0.263-0.009-0.474,0.01,0.609-0.025l-0.395,0.016l-0.396,0.016c-0.109,0.003-0.078,0.005-0.005,0.004l0.151-0.004
		c0.101-0.004,0.201-0.014,0.302-0.027c0.099-0.013,0.229-0.038,0.19-0.028c0.004,0.001,0.008-0.002,0.011-0.011
		c-0.045,0.017-0.078,0.001-0.2,0.037c-0.196,0.035-0.549,0.136-0.979,0.295c-0.855,0.299-2.017,0.829-3.262,1.5
		c-2.506,1.34-5.439,3.137-8.317,5.212c-2.91,2.063-5.815,4.412-8.749,6.815c-2.949,2.392-5.872,4.918-8.747,7.523
		c-1.438,1.301-2.861,2.627-4.278,3.961c-1.439,1.313-2.865,2.643-4.276,3.984c-2.821,2.683-5.584,5.418-8.253,8.171
		c-1.361,1.353-2.701,2.711-3.997,4.062l-1.908,2.015L204.089,278l-0.928,1.188l-0.44,0.567l-0.267,0.37l-0.55,0.733
		c-0.184,0.231-0.405,0.6-0.607,0.893c-0.427,0.611-0.825,1.246-1.207,1.894c-0.402,0.632-0.764,1.299-1.141,1.955
		c-2.973,5.289-4.988,11.381-6.254,17.756c-1.255,6.383-1.881,13.045-1.926,19.679c-0.043,6.634,0.35,13.251,1.021,19.69
		c0.335,3.221,0.764,6.398,1.24,9.522c0.478,3.124,0.958,6.208,1.519,9.223c2.24,12.062,4.962,23.167,7.65,32.978
		c1.313,4.919,2.658,9.505,3.921,13.751c1.243,4.255,2.444,8.154,3.554,11.675c2.147,7.073,3.956,12.616,5.201,16.392
		c1.206,3.8,1.849,5.827,1.849,5.827l0.044,0.139c0.181,0.569-0.134,1.178-0.704,1.358c-0.521,0.165-1.073-0.084-1.302-0.563
		c0,0-0.914-1.904-2.627-5.477c-1.701-3.578-4.181-8.836-7.202-15.592c-3.013-6.76-6.573-15.019-10.288-24.648
		c-3.708-9.629-7.586-20.633-10.98-32.908c-1.704-6.134-3.235-12.6-4.488-19.365c-1.244-6.765-2.235-13.831-2.674-21.16
		c-0.441-7.322-0.365-14.915,0.65-22.61c1.024-7.678,2.977-15.495,6.442-22.867c0.44-0.916,0.864-1.844,1.359-2.738
		c0.469-0.908,0.961-1.806,1.494-2.685c1.019-1.771,2.229-3.559,3.377-5.149c2.452-3.349,4.997-6.47,7.638-9.626
		c5.279-6.273,10.864-12.406,16.76-18.348c5.907-5.927,12.109-11.688,18.873-16.913c3.391-2.6,6.916-5.077,10.728-7.208
		c1.905-1.064,3.881-2.046,5.973-2.852c1.043-0.406,2.116-0.769,3.228-1.058c1.127-0.297,2.208-0.524,3.483-0.646
		c1.083-0.111,2.407-0.12,3.567,0.017c1.182,0.146,2.338,0.368,3.443,0.686c2.225,0.61,4.275,1.534,6.247,2.533
		c3.93,2.031,7.484,4.521,10.873,7.154c6.749,5.304,12.804,11.252,18.511,17.392c5.688,6.161,11.002,12.552,15.945,19.107
		c2.472,3.278,4.843,6.604,7.093,9.988c2.241,3.393,4.381,6.822,6.236,10.456c3.669,7.36,5.604,15.201,6.555,22.904
		c0.938,7.716,0.883,15.313,0.336,22.629c-1.144,14.648-4.204,28.189-7.607,40.445c-3.498,12.244-7.43,23.225-11.161,32.844
		c-3.745,9.616-7.309,17.873-10.325,24.631c-3.022,6.756-5.507,12.011-7.207,15.59c-1.714,3.57-2.629,5.475-2.629,5.475
		c-0.258,0.539-0.904,0.766-1.442,0.507c-0.488-0.234-0.72-0.787-0.566-1.29L294.42,442.094z"/>
</g>
</svg>
