<?xml version="1.0" encoding="utf-8"?>
<!-- Generator: Adobe Illustrator 16.0.3, SVG Export Plug-In . SVG Version: 6.00 Build 0)  -->
<!DOCTYPE svg PUBLIC "-//W3C//DTD SVG 1.1//EN" "http://www.w3.org/Graphics/SVG/1.1/DTD/svg11.dtd">
<svg version="1.1" id="Dolphin" xmlns="http://www.w3.org/2000/svg" xmlns:xlink="http://www.w3.org/1999/xlink" x="0px" y="0px"
	 width="511.92px" height="511.92px" viewBox="0 0 511.92 511.92" enable-background="new 0 0 511.92 511.92" xml:space="preserve">
<g>
	<path fill="#FFFFFF" d="M397.565,121.776c-25.104-28.401-56.801-51.471-92.956-63.499c-15.412-5.127-32.313-8.922-48.637-8.922
		c-16.324,0-33.226,3.795-48.638,8.922C135.865,82.053,76.919,149.855,61.173,223.278c-15.941,74.33,27.036,151.008,84.137,196.311
		c28.589,22.682,62.935,38.373,99.418,42.178c32.934,3.435,67.446-7.987,95.688-24.3c53.982-31.179,97.219-87.558,110.357-148.824
		C463.742,228.172,437.313,166.742,397.565,121.776C358.193,77.233,433.236,162.131,397.565,121.776z"/>
</g>
<path fill="#FFFFFF" stroke="#000000" stroke-width="13.993" stroke-linecap="round" stroke-linejoin="round" stroke-miterlimit="10" d="
	M-234.374,268.293"/>
<g>
	<path d="M397.553,121.776c-25.104-28.401-56.801-51.471-92.956-63.499c-15.412-5.127-32.313-8.922-48.638-8.922
		s-33.226,3.795-48.638,8.922C135.852,82.053,76.906,149.855,61.16,223.278c-15.941,74.33,27.036,151.008,84.137,196.311
		c28.589,22.682,62.935,38.373,99.418,42.178c32.935,3.435,67.446-7.987,95.688-24.3c53.982-31.179,97.219-87.558,110.357-148.824
		C463.729,228.172,437.3,166.742,397.553,121.776C358.181,77.233,433.224,162.131,397.553,121.776z M372.747,368.218
		c-34.034,38.504-86.591,69.615-139.486,58.239c-55.01-11.83-100.65-54.964-125.192-104.353c7.339-1.212,18.863-3.557,25.345,1.063
		c1.428,2.142,4.368,5.415,6.048,8.208c8.238,13.691,14.059,28.326,25.969,39.51c10.366,9.732,24.569,16.354,38.973,15.492
		c9.608-0.575,18.892-3.595,28.241-5.633c5.689-1.445,14.9-1.078,21.309-1.091c8.696-0.017,17.316,0.229,25.988,0.873
		c0.697,0.062,3.49,0.604,2.203,0.322c8.104,1.754,16.06,4.172,24.305,5.209c13.438,1.689,26.531-2.677,37.292-10.717
		c9.343-6.98,16.775-16.82,22.407-27.236c4.271-7.898,7.716-18.654,14.706-24.689c-0.061,0.038-0.122,0.072-0.186,0.104
		c5.059-5.113,17.05-2.646,23.304-1.655C395.684,338.599,385.113,354.227,372.747,368.218
		C339.578,405.743,385.356,353.952,372.747,368.218z M213.202,364.921c7.394-17.175,23.747-31.486,43.077-31.746
		c19.215,0.783,35.144,13.896,42.821,31.158C270.661,356.223,241.6,357.188,213.202,364.921
		C213.998,363.072,215.437,364.313,213.202,364.921z M401.771,315.286c-7.512-2.082-16.677-4.092-24.189-0.974
		c-6.561,2.723-11.519,9.159-15.64,14.645c-11.104,14.779-21.307,32.619-40.648,37.41c-4.608,1.141-9.09,1.043-13.718,0.104
		c-0.082-4.196-0.777-8.337-1.975-12.359c-2.858-9.361-8.303-17.991-15.638-24.492c-8.252-7.637-19.24-12.353-30.45-13.117
		c-12.756-0.869-25.561,3.508-35.362,11.686c-6.84,5.707-12.224,13.073-15.603,21.31c-1.519,3.702-2.592,7.584-3.168,11.545
		c-0.28,1.924-0.418,3.848-0.433,5.79c-2.968,0.497-5.904,0.573-8.887,0.119c-19.659-2.994-31.046-20.745-41.729-35.525
		c-4.483-6.166-9.372-12.535-16.056-16.447c-7.743-4.313-18.5-1.807-26.517,0.348c-2.041,0.548-4.062,1.164-6.07,1.822
		c-1.107-2.392-2.166-4.807-3.173-7.242c-1.964-4.749-3.734-9.579-5.277-14.481c-3.125-9.927-5.35-20.179-6.191-30.562
		c-1.38-17.035,1.478-34.068,6.779-50.243c12.004-36.622,35.709-69.802,65.4-94.207c26.395-21.695,63.736-40.75,98.947-37.485
		c36.775,3.41,70.563,21.721,97.11,46.836c25.571,24.191,45.953,55.098,56.083,88.948c4.507,15.06,6.798,30.795,5.481,46.511
		c-0.755,9.01-2.554,17.919-5.067,26.596c-1.463,5.049-3.172,10.025-5.092,14.918c-0.986,2.515-2.029,5.009-3.123,7.479
		C405.91,317.954,405.199,316.239,401.771,315.286C398.646,314.42,403.415,315.743,401.771,315.286z"/>
	<path d="M257.327,103.313c-4.72,0-25.633,0.252-25.633,8.365c0,8.113,20.914,8.365,25.633,8.365c4.72,0,25.633-0.252,25.633-8.365
		C282.96,103.565,262.047,103.313,257.327,103.313z"/>
	<path d="M374.217,203.313c-20.771,0-27.843,27.804-27.843,44.012s7.072,44.011,27.843,44.011s27.843-27.803,27.843-44.011
		S394.988,203.313,374.217,203.313z M387.038,263.591c1.457-9.957,0.218-21.94-6.163-30.131c-6.224-7.988-15.489-6.28-20.645,2.01
		c1.847-8.569,10.461-27.337,20.816-15.742C390.937,230.8,391.277,250.222,387.038,263.591
		C387.37,261.321,388.522,258.909,387.038,263.591z"/>
	<path d="M136.336,203.313c-20.771,0-27.844,27.804-27.844,44.012s7.073,44.011,27.844,44.011s27.844-27.803,27.844-44.011
		C164.18,231.117,157.107,203.313,136.336,203.313z M139.305,227.954c-15.287,0-17.305,25.283-15.787,35.648
		c-4.241-13.372-3.905-32.798,5.988-43.875c10.354-11.593,18.968,7.168,20.815,15.737
		C147.926,231.615,144.133,227.954,139.305,227.954z"/>
</g>
</svg>
