<?xml version="1.0" encoding="utf-8"?>
<!-- Generator: Adobe Illustrator 16.0.3, SVG Export Plug-In . SVG Version: 6.00 Build 0)  -->
<!DOCTYPE svg PUBLIC "-//W3C//DTD SVG 1.1//EN" "http://www.w3.org/Graphics/SVG/1.1/DTD/svg11.dtd">
<svg version="1.1" id="Hare" xmlns="http://www.w3.org/2000/svg" xmlns:xlink="http://www.w3.org/1999/xlink" x="0px" y="0px"
	 width="511.92px" height="511.92px" viewBox="0 0 511.92 511.92" enable-background="new 0 0 511.92 511.92" xml:space="preserve">
<path fill="#FFFFFF" d="M486.302,88.916c-1.313-10.008-21.711-4.409-27.64-3.505c-18.681,2.848-37.139,7.327-55.143,13.053
	c-34.679,11.029-68.149,26.529-94,52.708c-3.498,3.542-6.865,7.211-10.124,10.974c-1.727,1.993-3.422,4.013-5.09,6.055
	c-2.492,3.054-2.36,1.549-5.311-0.172c-7.968-4.648-17.021-7.651-26.218-8.508c-12.01-1.119-24.248,0.992-35.21,6.035
	c-2.216,1.019-4.377,2.156-6.472,3.405c-3.173,1.892-3.252-0.413-5.347-2.927c-3.258-3.91-6.624-7.732-10.118-11.434
	c-6.532-6.92-13.554-13.417-21.058-19.276c-14.18-11.07-30.578-19.267-47.111-26.186c-30-12.554-62.192-21.436-94.533-25.099
	c-3.782-0.429-8.297-1.372-12.101-0.617c-5.199,1.032-7.263,7.693-3.069,11.265c8.111,10.227,12.889,23.64,19.1,35.103
	c13.78,25.432,30.687,49.693,53.692,67.634c22.024,17.175,48.825,27.153,74.086,37.43c-26.07,29.046-43.084,70.955-48.249,109.371
	c-2.131,15.857-2.526,33.801,5.189,48.332c6.742,12.697,19.647,20.387,32.757,25.195c19.58,7.182,40.581,9.912,61.331,10.641
	c19.425,0.684,39.154,0.648,58.579-0.057c31.262-1.135,76.238-4.98,94.942-34.063c14.149-22,6.982-55.455,0.472-78.736
	c-8.08-28.891-21.112-58.774-41.054-81.525c34.07-12.78,68.758-28.368,93.977-56.648c12.086-13.554,22.063-28.828,30.828-44.693
	c3.402-6.158,6.62-12.414,9.816-18.68c2.405-4.715,4.772-9.463,7.426-14.045C482.559,96.648,486.843,92.984,486.302,88.916
	C486.226,88.335,486.566,90.907,486.302,88.916z"/>
<g>
	<path d="M281.165,350.828c-8.74-3.823-20.476,10.11-25.819,15.308c-5.337-5.214-17.083-19.121-25.824-15.308
		c-5.392,2.375-1.074,9.113,2.216,10.829c6.056,3.157,12.455,5.804,18.911,8.022c1.349,1.6,1.44,6.734,1.871,8.747
		c0.623,2.916,1.247,5.832,1.87,8.748c-5.399,0.219-10.672,1.216-15.643,3.385c-1.252,0.547-9.857,4.446-9.412,6.407
		c-0.075-0.316,24.156-2.812,25.986-2.806c5.318,0.135,10.56,0.49,15.824,1.287c1.24,0.188,9.255,2.48,10.116,1.683
		c0.949-0.865-6.854-5.332-7.492-5.661c-5.595-2.728-11.546-3.974-17.734-4.289c1.23-5.758,2.461-11.515,3.691-17.272
		c0.344-1.607,15.549-6.414,17.87-7.566C280.884,360.711,287.723,353.677,281.165,350.828
		C280.368,350.479,282.132,351.248,281.165,350.828z"/>
	<path d="M486.302,88.916c-1.313-10.008-21.711-4.409-27.64-3.505c-18.681,2.848-37.139,7.327-55.143,13.053
		c-34.679,11.029-68.149,26.529-94,52.708c-3.498,3.542-6.865,7.211-10.124,10.974c-1.727,1.993-3.422,4.013-5.09,6.055
		c-2.492,3.054-2.36,1.549-5.311-0.172c-7.968-4.648-17.021-7.651-26.218-8.508c-12.01-1.119-24.247,0.992-35.209,6.035
		c-2.216,1.019-4.377,2.156-6.472,3.405c-3.173,1.892-3.252-0.413-5.347-2.927c-3.258-3.91-6.624-7.732-10.118-11.434
		c-6.532-6.92-13.554-13.417-21.058-19.276c-14.18-11.07-30.578-19.267-47.111-26.186c-30-12.554-62.192-21.436-94.533-25.099
		c-3.782-0.429-8.297-1.372-12.101-0.617c-5.199,1.032-7.263,7.693-3.069,11.265c8.111,10.227,12.889,23.64,19.1,35.103
		c13.78,25.432,30.687,49.693,53.692,67.634c22.024,17.175,48.825,27.153,74.086,37.429c-26.07,29.048-43.084,70.955-48.249,109.372
		c-2.131,15.856-2.526,33.8,5.189,48.331c6.742,12.698,19.647,20.388,32.757,25.196c19.58,7.182,40.581,9.911,61.331,10.641
		c19.425,0.684,39.153,0.647,58.578-0.058c31.262-1.135,76.238-4.98,94.942-34.062c14.149-22,6.982-55.455,0.472-78.736
		c-8.08-28.892-21.112-58.775-41.054-81.526c34.07-12.78,68.758-28.368,93.977-56.648c12.086-13.554,22.063-28.828,30.828-44.693
		c3.402-6.158,6.62-12.414,9.816-18.68c2.405-4.715,4.772-9.463,7.426-14.045C482.559,96.648,486.843,92.984,486.302,88.916
		C486.226,88.335,486.566,90.907,486.302,88.916z M433.214,131.306c-4.977,4.669-8.475,11.21-12.217,16.838
		c-6.351,9.552-12.955,18.95-20.521,27.59c-19.978,22.815-46.624,35.852-74.892,44.744c-7.846,2.468-14.56,3.611-20.039,9.951
		c-4.369,5.054-7.824,10.774-9.861,17.154c-4.453,13.947-4.087,29.1-1.395,43.344c5.487,28.521,19.796,56.537,37.217,79.633
		c-12.165-21.554-21.272-46.166-24.731-70.699c30.915,14.733,43.367-49.236,10.385-53.435c3.979-3.666,8.623-6.533,13.453-8.934
		c10.951,23.385,17.565,49.236,22.384,74.524c2.565,13.461,4.493,27.133,4.773,40.852c0.162,7.982-0.243,20.792-3.456,26.486
		c-5.916,11.545-18.582,17.769-30.297,21.955c-22.449,8.023-46.606,11.451-70.196,14.169c-22.473-2.687-45.466-6.104-66.806-13.93
		c-11.686-4.286-24.072-12.447-29.39-21.799c-3.077-6.436-3.448-14.082-3.539-21.09c-0.196-15.021,2.038-30.078,4.965-44.775
		c5.099-25.604,12.102-51.754,23.416-75.368c4.109,2.19,8.04,4.75,11.473,7.912c-32.956,4.221-20.521,68.142,10.386,53.438
		c-3.459,24.531-12.565,49.144-24.73,70.695c17.421-23.097,31.727-51.112,37.216-79.634c2.688-14.244,3.061-29.396-1.394-43.343
		c-2.038-6.38-5.491-12.1-9.86-17.154c-2.496-2.887-4.638-5.535-8.309-6.719c-4.328-1.396-8.677-2.723-13.018-4.078
		c-28.474-8.889-54.42-22.339-74.112-45.338c-7.372-8.61-13.82-17.927-20.078-27.361c-2.301-3.469-4.569-6.967-7.012-10.339
		c-1.13-1.56-3.905-3.727-4.573-5.421c0.014,0.035,5.857,0.676,6.276,0.753c6.03,1.113,12.012,2.504,17.957,4.002
		c17.15,4.323,34.208,9.627,50.362,16.877c18.341,8.23,34.306,20.592,48.67,34.571c1.048-0.621,7.082-0.207,9.146-0.354
		c6.243-0.447,12.476-1.025,18.711-1.575c8.755-0.773,19.19-1.795,27.243-1.737c7.285,0.011,14.545,0.366,21.805,0.99
		c6.361,0.547,12.711,1.229,19.065,1.853c3.429,0.336,9.199,1.973,12.427,0.824c14.815-14.419,31.246-26.941,50.228-35.262
		c16.128-7.069,33.098-12.292,50.172-16.528c5.753-1.427,11.54-2.759,17.376-3.803C428.86,131.612,433.133,131.348,433.214,131.306
		C423.423,140.493,437.433,129.109,433.214,131.306z M311.512,261.827c-1.203,0.018-2.328,0.323-3.375,0.916
		c1.233-4.524,7.537-5.447,10.875-2.981c4.262,3.148,5.874,9.177,5.874,14.223c0,8.854-9.394,23.267-17.195,10.995
		C320.501,293.132,326.8,261.827,311.512,261.827z M199.604,286.142c1.385-0.021,2.659-0.408,3.822-1.162
		c-7.803,12.271-17.196-2.141-17.196-10.995c0-5.046,1.612-11.074,5.874-14.223c3.338-2.466,9.627-1.547,10.861,2.974
		C190.085,255.661,184.791,286.142,199.604,286.142z"/>
</g>
</svg>
