<?xml version="1.0" encoding="utf-8"?>
<!-- Generator: Adobe Illustrator 16.0.3, SVG Export Plug-In . SVG Version: 6.00 Build 0)  -->
<!DOCTYPE svg PUBLIC "-//W3C//DTD SVG 1.1//EN" "http://www.w3.org/Graphics/SVG/1.1/DTD/svg11.dtd">
<svg version="1.1" id="Hummingbird" xmlns="http://www.w3.org/2000/svg" xmlns:xlink="http://www.w3.org/1999/xlink" x="0px"
	 y="0px" width="511.92px" height="511.92px" viewBox="0 0 511.92 511.92" enable-background="new 0 0 511.92 511.92"
	 xml:space="preserve">
<g>
	<path fill="#FFFFFF" d="M451.747,154.009c-24.691,9.534-49.336,19.194-73.91,29.024c-8.879,3.552-17.689,7.604-26.955,10.054
		c-3.889,1.028-7.932,1.871-11.973,1.871c-3.947,0-1.941-9.051-1.771-12.358c0.766-14.867,0.271-28.417-2.813-43.088
		c-7.904-37.603-51.428-53.562-85.883-51.052c-19.042,1.387-38.655,7.956-53.004,20.896c-13.516,12.19-18.273,27.931-20.547,45.486
		c-0.977,7.547-0.91,15.024-0.419,22.603c0.354,5.448,0.594,10.894,0.594,16.354c0,2.919-11.979-0.169-14.027-0.71
		c-12.167-3.217-23.82-8.816-35.497-13.461c-10.879-4.328-21.772-8.621-32.675-12.892c-20.587-8.064-41.219-16.013-61.847-23.971
		c1.984,16.961,3.082,34.255,7.723,50.759c5.196,18.483,13.973,34.866,27.873,48.23c2.515,2.417,5.128,4.732,7.826,6.943
		c2.664,2.182,3.708,4.883,5.447,7.846c4.974,8.475,11.285,16.254,19.768,21.412c3.36,2.042,8.204,3.05,10.514,6.147
		c2.771,3.716,6.231,6.954,10.269,9.257c3.854,2.2,8.148,3.564,12.508,4.321c3.611,2.885,7.642,5.267,11.967,6.908
		c8.416,3.192,17.394,2.843,26.186,1.83c3.409-0.393,2.454,0.716,3.094,3.648c0.451,2.07,0.943,4.131,1.48,6.18
		c1.339,5.104,2.954,10.143,4.934,15.036c10.484,25.929,31.93,40.514,57.512,49.029c14.95,4.978,30.173,9.289,45.603,12.501
		c4.604,0.958,4.361,2.245,6.457,6.369c1.271,2.502,2.787,4.883,4.449,7.143c3.799,5.166,8.482,9.839,14.049,13.084
		c19.283,11.244,43.428-2.117,61.322-10.823c-4.186-6.243-8.334-12.491-12.838-18.513c19.217-4.037,28.174-27.715,35.117-43.754
		c-10.268-2.566-20.535-5.134-30.803-7.7c-5.055-1.263-10.107-2.526-15.16-3.789c-3.664-0.916-3.596-23.948-3.977-28.245
		c12.754,1.333,24.705-0.018,35.27-7.854c4.395-3.26,11.084-3.345,15.924-6.656c2.576-1.763,4.885-3.901,6.889-6.293
		c2.65-3.165,4.299-3.876,7.984-5.705c11.473-5.693,19.492-15.676,25.443-26.778c2.078-3.873,5.42-6.002,8.672-8.95
		c4.623-4.189,8.971-8.705,12.838-13.604c19.912-25.232,21.967-57.441,25.541-87.982
		C471.183,146.513,461.466,150.261,451.747,154.009z"/>
</g>
<g>
	<path d="M271.739,184.811c-3.215-2.653-6.395-6.041-10.064-8.062c-7.318-4.029-13.016,1.064-18.332,5.45
		c-5.2,4.291-9.825,10.104-5.783,17.108c1.874,4.042,4.546,7.873,6.773,11.729c2.1,3.637,4.445,9.837,8.454,11.803
		c5.626,2.759,9.285-2.255,11.751-6.527C269.21,208.22,282.042,193.313,271.739,184.811z M266.19,194.591
		c-3.41,5.907-6.82,11.813-10.231,17.72c-2.04-3.533-13.084-17.5-9.156-20.741c1.874-1.546,7.922-8.573,10.684-6.293
		C259.144,186.644,267.79,191.823,266.19,194.591z"/>
	<path d="M224.875,133.26c-22.894,0-22.894,42.959,0,42.959S247.769,133.26,224.875,133.26z M225.754,144.265
		c-9.782,0-12.278,13.366-9.161,20.443c-4.424-7-3.797-19.4,4.004-23.965c8.698-5.089,14.984,5.911,15.251,13.227
		C234.735,149.208,231.098,144.265,225.754,144.265z"/>
	<path d="M291.771,133.26c-22.895,0-22.895,42.959,0,42.959S314.665,133.26,291.771,133.26z M296.519,168.424
		c10.828-11.768-5.572-34.559-15.061-18.926c2.041-7.633,10.439-13.824,17.031-6.781
		C304.708,149.358,304.474,163.139,296.519,168.424C298.827,165.915,300.212,165.97,296.519,168.424z"/>
	<path d="M451.747,154.009c-24.691,9.534-49.336,19.194-73.91,29.024c-8.879,3.552-17.689,7.604-26.955,10.054
		c-3.889,1.028-7.932,1.871-11.973,1.871c-3.947,0-1.941-9.051-1.771-12.358c0.766-14.867,0.271-28.417-2.813-43.088
		c-7.904-37.603-51.428-53.562-85.883-51.052c-19.042,1.387-38.656,7.956-53.004,20.896c-13.516,12.19-18.273,27.931-20.547,45.486
		c-0.977,7.547-0.91,15.024-0.419,22.603c0.354,5.448,0.593,10.894,0.593,16.354c0,2.919-11.978-0.169-14.027-0.71
		c-12.167-3.217-23.821-8.816-35.497-13.461c-10.879-4.328-21.773-8.621-32.675-12.892c-20.587-8.064-41.218-16.013-61.847-23.971
		c1.985,16.961,3.082,34.255,7.723,50.759c5.197,18.483,13.973,34.866,27.874,48.23c2.515,2.417,5.128,4.732,7.826,6.943
		c2.664,2.182,3.708,4.883,5.447,7.846c4.974,8.475,11.285,16.254,19.768,21.412c3.36,2.042,8.204,3.05,10.514,6.147
		c2.771,3.716,6.231,6.954,10.268,9.257c3.854,2.2,8.148,3.564,12.508,4.321c3.611,2.885,7.642,5.267,11.967,6.908
		c8.416,3.192,17.393,2.843,26.186,1.83c3.409-0.393,2.454,0.716,3.093,3.648c0.451,2.07,0.943,4.131,1.481,6.18
		c1.339,5.104,2.954,10.143,4.933,15.036c10.485,25.929,31.93,40.514,57.512,49.029c14.95,4.978,30.173,9.289,45.603,12.501
		c4.604,0.958,4.361,2.245,6.457,6.369c1.271,2.502,2.787,4.883,4.449,7.143c3.799,5.166,8.482,9.839,14.049,13.084
		c19.283,11.244,43.428-2.117,61.322-10.823c-4.186-6.243-8.334-12.491-12.838-18.513c19.217-4.037,28.174-27.715,35.117-43.754
		c-10.268-2.566-20.535-5.134-30.803-7.7c-5.055-1.263-10.107-2.526-15.16-3.789c-3.664-0.916-3.596-23.948-3.977-28.245
		c12.754,1.333,24.705-0.018,35.27-7.854c4.395-3.26,11.084-3.345,15.924-6.656c2.576-1.763,4.885-3.901,6.889-6.293
		c2.65-3.165,4.299-3.876,7.984-5.705c11.473-5.693,19.492-15.676,25.443-26.778c2.078-3.873,5.42-6.002,8.672-8.95
		c4.623-4.189,8.971-8.705,12.838-13.604c19.912-25.232,21.967-57.441,25.541-87.982
		C471.183,146.513,461.466,150.261,451.747,154.009z M324.624,409.441c-4.697,0-8.77-2.246-12.232-5.278
		c-3.672-3.215-5.955-9.496-10.744-9.496c12.307,0,24.922-2.52,36.049-7.877c0.252-0.122,10.588,14.043,12.043,16.068
		C341.919,406.116,333.21,409.441,324.624,409.441z M351.761,378.892c-1.807-9.95-3.539-19.858-4.859-29.891
		c8.996,1.023,17.992,2.046,26.988,3.069c-2.643,7.486-7.963,22.572-17.205,24.184c-0.838,0.146,6.951-1.212,0,0
		c-1.783,0.312-3.609,0.263-5.398,0.023 M445.423,211.955c-4.063,7.055-9.734,13.15-15.754,18.575
		c-2.104,1.895-8.426,5.196-9.52,7.78c-5.348,12.657-13.783,24.25-27.768,27.632c-4.4,1.064-4.475,6.129-7.936,9.32
		c-2.666,2.459-6.18,3.5-9.701,3.981c-1.342,0.184-3.438-0.263-4.395,0.775c-10.607,11.528-26.176,8.3-39.93,5.717
		c-3.281-0.616-8.264-3.992-8.293,0.467c-0.074,11.161,1.416,22.451,2.496,33.533c1.473,15.137,3.146,30.275,5.516,45.302
		c0.117,0.734,1.139,3.856,0.367,4.265c-4.783,2.532-10.146,4.13-15.43,5.182c-21.115,4.202-42.846-3.226-62.857-9.448
		c-7.92-2.462-16.112-4.878-23.564-8.581c-27.854-13.845-37.427-43.006-39.102-72.379c-14.863,3.376-34.368,8.935-46.751-2.806
		c-4.551-4.314-11.834-1.743-16.68-7.414c-0.734-0.857-3.666-7.354-4.319-7.454c-4.069-0.619-8.111-2.126-11.671-4.166
		c-8.328-4.771-13.638-13.671-17.576-22.156c-1.904-4.103-6.974-6.546-10.307-9.549c-16.438-14.811-24.938-34.579-28.462-56.171
		c27.969,22.007,58.171,38.919,92.495,48.638c11.325,3.207,25.951,8.668,36.795,1.714c11.927-7.648,13.374-19.215,12.868-32.288
		c-0.347-8.967-2.315-17.693-2.975-26.579c-0.964-12.981,3.275-30.467,12.809-40.313c20.34-21.007,57.063-23.072,82.706-11.85
		c10.098,4.419,19.586,11.453,24.555,21.534c4.26,8.643,7.361,23.071,5.766,32.779c-2.717,16.536-7.801,40.132,5.697,53.104
		c7.842,7.535,15.508,7.625,25.498,5.734c12.514-2.368,24.805-6.251,36.752-10.614c26.102-9.532,49.57-24.557,71.346-41.656
		C455.956,187.513,451.989,200.546,445.423,211.955C437.036,226.521,453.626,197.706,445.423,211.955z"/>
</g>
</svg>
