<?xml version="1.0" encoding="utf-8"?>
<!-- Generator: Adobe Illustrator 16.0.3, SVG Export Plug-In . SVG Version: 6.00 Build 0)  -->
<!DOCTYPE svg PUBLIC "-//W3C//DTD SVG 1.1//EN" "http://www.w3.org/Graphics/SVG/1.1/DTD/svg11.dtd">
<svg version="1.1" id="Numbat" xmlns="http://www.w3.org/2000/svg" xmlns:xlink="http://www.w3.org/1999/xlink" x="0px" y="0px"
	 width="511.92px" height="511.92px" viewBox="0 0 511.92 511.92" enable-background="new 0 0 511.92 511.92" xml:space="preserve">
<g>
	<path fill="#FFFFFF" d="M437.676,57.648c-3.892-13.213-21.237-9.788-31.248-7.438c-18.803,4.412-37.353,13.783-50.719,27.894
		c-12.444,13.137-19.923,29.682-28.1,45.58c-19.055-7.447-39.531-11.459-59.959-12.228c-14.163-0.533-28.545-0.307-42.588,1.606
		c-9.798,1.335-19.502,3.412-28.969,6.276c-2.429,0.735-4.843,1.523-7.237,2.364c-3.207,1.127-4.162,2.996-5.932-0.48
		c-2.308-4.532-4.556-9.094-6.911-13.601c-8.354-15.988-18.523-30.988-33.719-41.209c-14.617-9.833-32.167-16.96-49.866-18.281
		c-5.952-0.444-12.459,0.252-16.272,5.416c-5.305,7.183-0.546,14.367,2.425,21.395c7.944,18.791,11.911,38.885,17.436,58.442
		c2.495,8.832,5.317,17.613,9.154,25.964c1.83,3.985,3.896,7.867,6.28,11.55c1.168,1.804,2.411,3.56,3.736,5.251
		c2.699,3.444,2.689,3.163,0.707,7.093c-8.002,15.86-9.753,33.1-6.85,50.509c3.404,20.41,10.612,40.601,17.972,59.876
		c7.542,19.758,16.372,39.027,26.428,57.632c17.367,32.127,38.15,64.306,65.779,88.635c8.525,7.507,18.7,13.893,30.326,14.594
		c6.091,0.367,12.398,4.402,18.492,5.927c15.191,3.8,31.415,4.427,46.91,2.324c13.533-1.836,28.706-5.927,38.382-16.214
		c10.17-10.814,8.607-25.514,2.451-37.994c-1.502,33.617-41.895,36.921-67.569,34.449c26.624-21.133,46.564-51.594,63.314-80.696
		c19.354-33.626,34.673-69.653,45.369-106.95c4.647-16.204,8.396-33,5.674-49.903c-1.214-7.539-3.681-14.814-7.07-21.647
		c-1.321-2.664-2.715-3.078-0.628-5.522c1.404-1.644,2.724-3.36,3.963-5.132c2.523-3.607,4.714-7.439,6.649-11.391
		c7.941-16.216,11.832-34.085,16.383-51.449c2.306-8.798,4.742-17.573,7.784-26.149C432.396,76.409,440.144,66.023,437.676,57.648
		C436.82,54.744,438.762,61.334,437.676,57.648z"/>
</g>
<g>
	<path d="M326.826,226.559c-15.622,0-23.494,20.264-23.246,33.265c0.246,13.035,10.01,26.492,24.017,26.111
		c16.234-0.416,24.782-17.584,22.499-32.08C348.272,242.284,340.434,226.559,326.826,226.559z M338.592,264.961
		c-0.401,1.273-0.942,2.485-1.623,3.634c-0.333-6.2-3.353-13.788-7.444-18.438c-7.275-8.267-13.036,5.458-14.74,11.27
		c-0.699-6.186,3.469-26.104,13.278-23.632C337.539,240.183,341.077,257.113,338.592,264.961
		C338.175,266.281,339.204,263.027,338.592,264.961z"/>
	<path d="M437.676,57.648c-3.892-13.213-21.237-9.788-31.248-7.438c-18.803,4.412-37.353,13.783-50.719,27.894
		c-12.444,13.137-19.923,29.682-28.1,45.58c-19.055-7.447-39.531-11.459-59.959-12.228c-14.163-0.533-28.545-0.307-42.588,1.606
		c-9.798,1.335-19.502,3.412-28.968,6.276c-2.429,0.735-4.843,1.523-7.237,2.364c-3.208,1.127-4.162,2.996-5.932-0.48
		c-2.308-4.532-4.556-9.094-6.911-13.601c-8.354-15.988-18.524-30.988-33.719-41.209c-14.618-9.833-32.167-16.96-49.867-18.281
		c-5.952-0.444-12.458,0.252-16.272,5.416c-5.305,7.183-0.546,14.367,2.425,21.395c7.944,18.791,11.911,38.885,17.436,58.442
		c2.495,8.832,5.317,17.613,9.154,25.964c1.831,3.985,3.897,7.867,6.281,11.55c1.167,1.804,2.411,3.56,3.736,5.251
		c2.699,3.444,2.689,3.163,0.707,7.093c-8.001,15.86-9.753,33.1-6.85,50.509c3.404,20.41,10.613,40.601,17.972,59.876
		c7.542,19.758,16.372,39.027,26.428,57.632c17.367,32.127,38.15,64.306,65.779,88.635c8.525,7.507,18.7,13.893,30.326,14.594
		c6.091,0.367,12.399,4.402,18.493,5.927c15.191,3.8,31.415,4.427,46.91,2.324c13.533-1.836,28.706-5.927,38.382-16.214
		c10.17-10.814,8.607-25.514,2.451-37.994c-1.502,33.617-41.895,36.921-67.569,34.449c26.624-21.133,46.564-51.594,63.314-80.696
		c19.354-33.626,34.673-69.653,45.369-106.95c4.647-16.204,8.396-33,5.674-49.903c-1.214-7.539-3.681-14.814-7.07-21.647
		c-1.321-2.664-2.715-3.078-0.628-5.522c1.404-1.644,2.724-3.36,3.963-5.132c2.523-3.607,4.714-7.439,6.649-11.391
		c7.941-16.216,11.832-34.085,16.383-51.449c2.306-8.798,4.742-17.573,7.784-26.149C432.396,76.409,440.144,66.023,437.676,57.648
		C436.82,54.744,438.762,61.334,437.676,57.648z M131.863,159.521c-0.755,0.916-1.501,1.839-2.239,2.769
		c-13.213-33.298-26.426-66.596-39.639-99.894c19.19,11.754,42.712,21.8,55.517,41.22c6.425,9.746,10.62,20.886,14.109,31.964
		C149.196,142.063,139.676,150.039,131.863,159.521C131.098,160.45,139.757,149.94,131.863,159.521z M259.071,420.743
		c-7.646-0.167-11.434-0.687-17.648-6.119c3.549-2.379,5.349-6.165,5.956-10.305c5.718,4.621,12.052,5.327,17.518,0
		c0.146,3.978,1.82,7.117,4.514,9.978C266.853,416.559,262.809,420.745,259.071,420.743z M365.929,239.314
		c-13.283,49.375-35.225,97.099-64.903,138.789c-0.693-5.813-1.847-11.59-3.363-17.243c-0.729-2.763-4.203-9.514-2.307-11.632
		c3.627-4.054,7.05-8.29,10.36-12.604c5.099-6.646,9.916-13.508,14.532-20.497c6.201-9.389,11.125-21.289,18.735-29.469
		c-10.337,4.027-25.497,5.877-30.302-7.13c-0.36,23.157-11.271,43.984-15.75,66.42c-0.568-1.539-6.543-19.002-8.747-18.567
		c-0.741,0.153,4.628,27.639,5.032,30.357c0.956,6.435,1.753,12.898,2.128,19.395c0.182,3.142,0.254,6.287,0.185,9.434
		c-0.104,4.775-1.903,6.542-4.976,10.11c-3.396-29.88-60.775-28.596-60.775,2.146c-8.157-9.222-3.176-29.633-1.473-41.085
		c0.464-3.121,6.905-29.32,5.185-30.3c-1.44-0.83-8.969,18.672-9.479,20.095c-5.812-22.627-16.741-44.329-17.11-68.005
		c-4.802,13.007-19.967,11.157-30.302,7.13c7.155,7.691,11.792,18.807,17.607,27.637c5.147,7.814,10.547,15.468,16.277,22.865
		c3.553,4.587,7.229,9.086,11.106,13.403c2.09,2.328-1.606,9.681-2.355,12.738c-1.491,6.094-2.547,12.263-3.115,18.51
		c-19.813-26.961-35.975-56.785-48.828-87.642c-6.474-15.542-12.086-31.445-16.748-47.625c-3.971-13.785-8.118-28.612-3.146-42.701
		c4.561,15.366,9.465,30.632,14.762,45.761c0-3.756,3.309-9.182,4.929-12.403c3.527-7.016,8.274-12.254,15.568-15.396
		c1.891-0.814,3.856-1.516,5.862-1.993c0.62-0.147-0.727-12.125-0.835-13.46c-0.812-9.955-1.775-19.904-2.29-29.88
		c-0.218-4.221-0.353-8.45-0.263-12.676c0.068-3.183,4.256-4.181,6.968-5.453c7.276-3.405,14.883-6.063,22.652-8.098
		c14.185-3.714,28.605-5.101,43.226-5.101c12.759,0,25.335,0.674,37.877,3.266c8.956,1.851,17.774,4.469,26.209,8.019
		c4.231,1.781,8.366,3.801,12.347,6.092c0.137,4.088,0.04,8.183-0.146,12.269c-0.439,9.731-1.363,19.436-2.169,29.141
		c-0.438,5.279-0.854,10.561-1.19,15.847c0.626,0.709,3.726,1.112,4.621,1.458c7.222,2.792,12.38,7.477,16.07,14.257
		c1.957,3.594,5.824,9.834,5.824,14.113c5.09-14.536,9.82-29.197,14.229-43.954C371.007,216.745,368.868,228.382,365.929,239.314
		C354.467,281.92,369.713,225.242,365.929,239.314z M381.943,162.858c-7.391-9.392-15.98-17.548-25.858-24.295
		c-4.047-2.764-4.098-2.553-2.503-7.283c1.034-3.069,2.14-6.115,3.339-9.123c2.285-5.731,4.907-11.357,8.146-16.617
		c12.686-20.61,36.854-30.963,56.74-43.144C408.519,95.884,395.231,129.371,381.943,162.858z"/>
	<path d="M204.761,243.599c-4.95-12.103-17.764-22.768-30.366-13.441c-10.887,8.057-16.003,25.396-11.966,38.145
		c4.036,12.778,17.703,21.646,30.681,15.769C208.661,277.026,210.536,257.767,204.761,243.599
		C200.419,232.982,205.23,244.751,204.761,243.599z M196.799,261.427c-1.474-5.028-6.694-18.798-13.833-12.204
		c-4.764,4.4-8.006,12.96-8.351,19.372c-5.076-8.543-1.903-25.673,7.679-30.345C192.571,233.239,197.492,255.301,196.799,261.427
		C194.897,254.941,196.866,260.831,196.799,261.427z"/>
</g>
</svg>
