<?xml version="1.0" encoding="utf-8"?>
<!-- Generator: Adobe Illustrator 16.0.3, SVG Export Plug-In . SVG Version: 6.00 Build 0)  -->
<!DOCTYPE svg PUBLIC "-//W3C//DTD SVG 1.1//EN" "http://www.w3.org/Graphics/SVG/1.1/DTD/svg11.dtd">
<svg version="1.1" id="Umbrellabird" xmlns="http://www.w3.org/2000/svg" xmlns:xlink="http://www.w3.org/1999/xlink" x="0px"
	 y="0px" width="511.92px" height="511.92px" viewBox="0 0 511.92 511.92" enable-background="new 0 0 511.92 511.92"
	 xml:space="preserve">
<g>
	<g>
		<path d="M255.492,222.122c-19.388,0-34.575-23.374-34.575-53.213v-0.682l15.699-44.686l18.876-55.038l18.883,55.066l15.687,44.657
			v0.682C290.062,198.748,274.877,222.122,255.492,222.122z"/>
		<g>
			<path d="M255.492,80.823l15.103,44.043l15.471,44.042c0,27.179-13.689,49.217-30.574,49.217
				c-16.887,0-30.578-22.038-30.578-49.217l15.473-44.042L255.492,80.823 M255.492,56.183l-7.561,22.046l-15.096,44.014
				l-15.463,44.015l-0.452,1.286v1.363c0,32.08,16.942,57.21,38.571,57.21c21.626,0,38.567-25.13,38.567-57.21v-1.363l-0.452-1.286
				l-15.46-44.014L263.053,78.23L255.492,56.183L255.492,56.183z"/>
		</g>
	</g>
	<g>
		<path d="M255.96,398.106c-68.424,0-124.091-56.914-124.091-126.872s55.667-126.873,124.091-126.873
			c68.423,0,124.09,56.915,124.09,126.873S324.384,398.106,255.96,398.106z"/>
		<path d="M255.96,148.545c66.221,0,119.907,54.929,119.907,122.689c0,67.759-53.686,122.688-119.907,122.688
			c-66.224,0-119.908-54.93-119.908-122.688C136.053,203.475,189.737,148.545,255.96,148.545 M255.96,140.178
			c-34.3,0-66.537,13.656-90.772,38.454c-24.184,24.745-37.503,57.632-37.503,92.603c0,34.97,13.319,67.856,37.503,92.603
			c24.235,24.797,56.472,38.453,90.772,38.453c34.299,0,66.536-13.656,90.77-38.453c24.185-24.746,37.504-57.633,37.504-92.603
			c0-34.97-13.319-67.857-37.504-92.603C322.496,153.834,290.26,140.178,255.96,140.178L255.96,140.178z"/>
	</g>
	<g>
		<ellipse fill="#FFFFFF" cx="197.522" cy="227.747" rx="27.396" ry="23.827"/>
	</g>
	<g>
		<ellipse fill="#FFFFFF" cx="314.06" cy="227.747" rx="27.396" ry="23.827"/>
	</g>
	<g>
		<path d="M197.522,249.76c-14.105,0-25.582-9.875-25.582-22.013c0-12.138,11.476-22.012,25.582-22.012
			c14.105,0,25.581,9.875,25.581,22.012C223.103,239.885,211.627,249.76,197.522,249.76z"/>
		<g>
			<path fill="#FFFFFF" d="M197.522,207.55c13.104,0,23.765,9.06,23.765,20.197c0,11.137-10.661,20.198-23.765,20.198
				c-13.104,0-23.766-9.061-23.766-20.198C173.756,216.61,184.418,207.55,197.522,207.55 M197.522,203.92
				c-15.13,0-27.396,10.668-27.396,23.827s12.267,23.828,27.396,23.828c15.13,0,27.396-10.669,27.396-23.828
				S212.653,203.92,197.522,203.92L197.522,203.92z"/>
		</g>
	</g>
	<g>
		<path stroke="#000000" stroke-width="8.1997" stroke-miterlimit="10" d="M168.411,146.37
			c15.281-16.02,50.419-26.509,85.867-26.652c36.792-0.092,73.004,10.763,87.42,27.294c2.906-1.075,3.386-1.313,6.086-2.678
			c15.998-8.582,22.41-23.305,22.37-23c0.375-0.083,7.033-15.353-7.69-28.307c-16.924-15.399-48.72-28.821-48.814-28.488
			c-0.027,0.011-15.001-6.349-29.791-8.845c-14.806-2.6-29.197-2.214-29.174-2.201c0.85-0.006,1.701-0.006,2.55-0.002
			c0.024-0.01-14.359-0.396-29.172,2.204c-14.792,2.495-29.764,8.857-29.79,8.843c-0.093-0.333-31.896,13.087-48.81,28.486
			c-14.729,12.96-8.071,28.229-7.699,28.311c-0.039-0.306,6.378,14.42,22.371,23.001C166.094,145.336,166.33,145.513,168.411,146.37
			z"/>
	</g>
	<g>
		<path d="M314.059,249.76c-14.105,0-25.58-9.875-25.58-22.013c0-12.138,11.475-22.012,25.58-22.012
			c14.106,0,25.582,9.875,25.582,22.012C339.641,239.885,328.165,249.76,314.059,249.76z"/>
		<g>
			<path fill="#FFFFFF" d="M314.059,207.55c13.105,0,23.768,9.06,23.768,20.197c0,11.137-10.662,20.198-23.768,20.198
				c-13.104,0-23.766-9.061-23.766-20.198C290.293,216.61,300.954,207.55,314.059,207.55 M314.059,203.92
				c-15.129,0-27.396,10.668-27.396,23.827s12.267,23.828,27.396,23.828c15.132,0,27.397-10.669,27.397-23.828
				S329.19,203.92,314.059,203.92L314.059,203.92z"/>
		</g>
	</g>
	<g>
		<path fill="#FFFFFF" d="M255.925,401.112c23.792,0,46.505-8.98,66.946-20.515c9.512-5.369,11.757-5.765,5.843-14.968
			c-6.153-9.576-7.222-20.312-12.333-29.817c-9.554-17.766-44.122-11.153-60.456-11.153h0.228c-16.334,0-50.901-6.612-60.455,11.153
			c-5.114,9.507-6.462,20.47-12.34,30.173c-5.811,9.594-4.017,10.234,5.825,15.679C209.576,392.944,233.148,401.15,255.925,401.112z
			"/>
	</g>
	<g>
		<path d="M255.96,148.545c66.221,0,119.907,54.929,119.907,122.689c0,67.759-53.686,122.688-119.907,122.688
			c-66.224,0-119.908-54.93-119.908-122.688C136.053,203.475,189.737,148.545,255.96,148.545 M255.96,140.178
			c-34.3,0-66.537,13.656-90.772,38.454c-24.184,24.745-37.503,57.632-37.503,92.603c0,34.97,13.319,67.856,37.503,92.603
			c24.235,24.797,56.472,38.453,90.772,38.453c34.299,0,66.536-13.656,90.77-38.453c24.185-24.746,37.504-57.633,37.504-92.603
			c0-34.97-13.319-67.857-37.504-92.603C322.496,153.834,290.26,140.178,255.96,140.178L255.96,140.178z"/>
	</g>
	<path stroke="#000000" stroke-width="22.8119" stroke-linejoin="round" stroke-miterlimit="10" d="M256.232,238.708
		c21.096,0,38.455,39.446,40.55,76.915c0.143,2.513-1.092,11.854-1.092,11.854l-19.321,62.315l-20.137,66.528h-0.277l-20.137-66.528
		l-19.321-62.315c0,0-1.234-9.342-1.093-11.854c2.097-37.469,19.454-76.915,40.551-76.915H256.232z"/>
	<path fill="#FFFFFF" d="M255.674,247.649c21.097,0,38.454,32.639,40.551,70.108c0.142,2.513-1.093,11.854-1.093,11.854
		l-19.321,62.315l-20.137,66.528h-0.277l-20.137-66.528l-19.321-62.315c0,0-1.234-9.342-1.094-11.854
		c2.097-37.469,19.454-70.108,40.551-70.108H255.674z"/>
</g>
<g>
	<path fill="#FFFFFF" d="M181.769,187.74c0,0,0.315-0.119,0.928-0.291c0.609-0.154,1.504-0.436,2.651-0.643
		c1.147-0.225,2.551-0.513,4.165-0.665c1.617-0.195,3.454-0.379,5.457-0.373c2.009-0.053,4.199-0.037,6.511,0.196
		c1.16,0.085,2.344,0.244,3.56,0.438c1.222,0.153,2.453,0.418,3.712,0.711c0.628,0.146,1.27,0.272,1.904,0.444
		c0.633,0.194,1.272,0.39,1.914,0.587c0.642,0.206,1.294,0.38,1.939,0.62c0.64,0.259,1.283,0.52,1.929,0.781
		c2.596,1.022,5.136,2.46,7.585,4.121l0.457,0.311l0.057,0.039l0.029,0.02l0.226,0.173l0.092,0.077l0.185,0.153l0.739,0.612
		l1.475,1.223c0.232,0.177,0.523,0.47,0.793,0.73l0.803,0.811c0.529,0.542,1.055,1.083,1.58,1.623
		c0.915,1.071,1.788,2.147,2.609,3.236c0.762,1.12,1.551,2.205,2.212,3.331c0.631,1.14,1.319,2.22,1.845,3.348
		c0.514,1.132,1.092,2.197,1.505,3.298c0.409,1.102,0.883,2.133,1.192,3.192c0.313,1.056,0.656,2.052,0.902,3.036
		c0.565,1.938,0.901,3.766,1.156,5.381c0.285,1.605,0.38,3.041,0.463,4.209c0.095,1.166,0.052,2.106,0.055,2.733
		c-0.016,0.633-0.05,0.977-0.05,0.977l-0.01,0.095c-0.016,0.161-0.16,0.278-0.32,0.261c-0.126-0.013-0.226-0.104-0.255-0.221
		c0,0-0.303-1.231-1.003-3.349c-0.692-2.119-1.816-5.105-3.391-8.583c-0.79-1.737-1.714-3.587-2.778-5.496
		c-0.513-0.964-1.133-1.901-1.715-2.888c-0.597-0.978-1.292-1.921-1.951-2.911c-0.691-0.967-1.458-1.901-2.199-2.873
		c-0.796-0.925-1.628-1.84-2.459-2.766c-0.904-0.845-1.766-1.73-2.714-2.56l-1.495-1.198l-0.749-0.6
		c-0.117-0.088-0.267-0.227-0.357-0.273l-0.396-0.258c-2.065-1.434-4.252-2.712-6.528-3.728c-0.568-0.256-1.134-0.511-1.696-0.764
		c-0.565-0.25-1.152-0.441-1.722-0.663c-0.573-0.214-1.143-0.427-1.708-0.639c-0.577-0.181-1.149-0.36-1.717-0.539
		c-0.569-0.176-1.133-0.35-1.692-0.523c-0.566-0.146-1.128-0.292-1.683-0.436c-1.106-0.305-2.202-0.551-3.274-0.77
		c-1.066-0.244-2.113-0.437-3.129-0.607c-1.012-0.19-1.996-0.341-2.943-0.469c-0.944-0.146-1.854-0.257-2.719-0.355
		c-0.864-0.112-1.685-0.208-2.459-0.277c-1.546-0.162-2.898-0.254-4.012-0.322c-2.231-0.132-3.5-0.13-3.5-0.13
		c-0.161,0-0.292-0.129-0.292-0.29c0-0.125,0.078-0.231,0.188-0.273L181.769,187.74z"/>
</g>
<g>
	<path fill="#FFFFFF" d="M326.054,188.34c0,0-0.317,0.103-0.912,0.296c-0.591,0.172-1.455,0.485-2.546,0.797
		c-2.138,0.66-5.191,1.602-8.855,2.732c-0.9,0.274-1.83,0.575-2.778,0.919c-0.953,0.32-1.939,0.615-2.929,0.988
		c-0.496,0.182-1.003,0.343-1.514,0.511c-0.502,0.187-1.01,0.376-1.522,0.568c-0.511,0.197-1.028,0.385-1.553,0.563
		c-0.51,0.206-1.024,0.415-1.544,0.625c-0.518,0.206-1.039,0.415-1.564,0.624c-0.51,0.227-1.023,0.456-1.54,0.685
		c-1.047,0.44-2.047,0.952-3.056,1.449c-2.017,1.01-3.93,2.138-5.695,3.381l-0.345,0.218l-0.044,0.027l-0.021,0.014
		c-0.186,0.142,0.229-0.178,0.177-0.138l-0.094,0.075l-0.188,0.148l-0.753,0.595l-1.504,1.188c-0.782,0.698-1.561,1.393-2.334,2.082
		c-0.759,0.811-1.562,1.594-2.34,2.385c-0.744,0.843-1.479,1.676-2.201,2.495c-0.7,0.863-1.388,1.712-2.062,2.543
		c-0.649,0.863-1.311,1.693-1.922,2.539c-1.22,1.689-2.401,3.312-3.443,4.863c-1.033,1.58-1.981,3.029-2.821,4.313
		c-0.837,1.324-1.566,2.479-2.167,3.43c-0.575,0.972-1.099,1.725-1.41,2.255c-0.331,0.526-0.508,0.806-0.508,0.806l-0.052,0.082
		c-0.086,0.136-0.267,0.177-0.402,0.091c-0.107-0.067-0.155-0.192-0.13-0.309c0,0,0.273-1.266,0.919-3.423
		c0.655-2.151,1.646-5.219,3.218-8.75c0.781-1.766,1.699-3.648,2.759-5.595c0.512-0.983,1.131-1.941,1.712-2.949
		c0.598-1,1.294-1.967,1.956-2.981c0.694-0.992,1.468-1.954,2.215-2.953c0.804-0.955,1.646-1.898,2.489-2.855
		c0.926-0.887,1.835-1.83,2.797-2.686l1.483-1.212l0.743-0.607c0.137-0.105,0.218-0.193,0.401-0.313l0.405-0.271
		c2.15-1.469,4.417-2.757,6.754-3.774c0.584-0.256,1.165-0.511,1.743-0.764c0.58-0.249,1.179-0.438,1.762-0.659
		c0.586-0.212,1.169-0.423,1.747-0.633c0.588-0.178,1.171-0.354,1.75-0.53c0.58-0.173,1.154-0.344,1.724-0.514
		c0.576-0.143,1.146-0.285,1.711-0.425c1.124-0.297,2.236-0.536,3.322-0.747c1.082-0.236,2.142-0.42,3.169-0.583
		c1.025-0.182,2.02-0.324,2.977-0.444c1.91-0.273,3.674-0.424,5.235-0.532c1.563-0.118,2.927-0.172,4.051-0.208
		c2.245-0.068,3.537-0.029,3.537-0.029c0.162,0.005,0.289,0.14,0.284,0.302c-0.004,0.127-0.088,0.232-0.202,0.27L326.054,188.34z"/>
</g>
<g>
	<path fill="#FFFFFF" d="M251.116,100.337c0,0,0.015,0.306,0.008,0.868c-0.021,0.557,0.003,1.392-0.078,2.417
		c-0.065,1.03-0.119,2.29-0.295,3.694c-0.146,1.416-0.314,3.011-0.582,4.723c-0.518,3.429-1.3,7.368-2.351,11.513
		c-0.246,1.042-0.544,2.085-0.834,3.145c-0.283,1.063-0.591,2.13-0.926,3.198c-0.627,2.15-1.367,4.299-2.088,6.454
		c-0.775,2.136-1.537,4.277-2.381,6.352c-0.399,1.045-0.831,2.07-1.265,3.08c-0.427,1.012-0.848,2.012-1.302,2.982
		c-1.754,3.901-3.589,7.473-5.311,10.482c-0.852,1.508-1.713,2.863-2.475,4.064c-0.733,1.211-1.475,2.231-2.06,3.08
		c-0.572,0.854-1.109,1.494-1.437,1.943c-0.343,0.445-0.544,0.675-0.544,0.675l-0.073,0.084c-0.105,0.121-0.288,0.133-0.409,0.028
		c-0.09-0.079-0.12-0.202-0.084-0.309c0,0,0.356-1.079,0.98-2.967c0.633-1.885,1.495-4.592,2.604-7.815
		c2.207-6.45,5.149-15.05,8.092-23.651c3.037-8.567,6.074-17.134,8.352-23.56c1.132-3.215,2.14-5.872,2.814-7.742
		c0.685-1.867,1.076-2.934,1.076-2.934c0.055-0.15,0.221-0.228,0.372-0.172c0.112,0.042,0.184,0.145,0.189,0.257L251.116,100.337z"
		/>
</g>
<g>
	<path fill="#FFFFFF" d="M257.196,100.14c0,0,0.202,0.23,0.546,0.675c0.329,0.449,0.867,1.089,1.44,1.942
		c0.589,0.848,1.329,1.868,2.064,3.079c0.766,1.2,1.624,2.555,2.479,4.062c1.724,3.009,3.559,6.581,5.311,10.482
		c0.455,0.969,0.869,1.972,1.3,2.983c0.438,1.008,0.86,2.036,1.262,3.081c0.844,2.075,1.6,4.218,2.373,6.354
		c0.721,2.155,1.453,4.307,2.081,6.457c0.336,1.067,0.636,2.138,0.923,3.199c0.294,1.059,0.585,2.104,0.832,3.146
		c1.049,4.146,1.83,8.085,2.351,11.514c0.27,1.711,0.436,3.307,0.585,4.721c0.179,1.404,0.23,2.665,0.299,3.693
		c0.083,1.024,0.06,1.859,0.082,2.416c0.008,0.562-0.007,0.867-0.007,0.867l-0.005,0.111c-0.008,0.16-0.144,0.284-0.303,0.276
		c-0.12-0.006-0.22-0.084-0.259-0.19c0,0-0.391-1.067-1.075-2.934c-0.676-1.87-1.682-4.528-2.814-7.743
		c-2.278-6.425-5.315-14.993-8.354-23.56c-2.942-8.6-5.885-17.201-8.092-23.651c-1.11-3.223-1.972-5.93-2.604-7.815
		c-0.624-1.888-0.98-2.967-0.98-2.967c-0.05-0.152,0.032-0.315,0.184-0.366c0.114-0.038,0.234-0.001,0.308,0.084L257.196,100.14z"/>
</g>
<g>
	<path fill="#FFFFFF" d="M146.873,105.341c0,0,0.651-0.669,1.93-1.841c1.291-1.156,3.162-2.898,5.686-4.925
		c2.511-2.045,5.587-4.515,9.282-7.114c1.837-1.316,3.812-2.692,5.917-4.115s4.383-2.813,6.764-4.27
		c2.385-1.448,4.896-2.92,7.526-4.401c2.634-1.473,5.426-2.866,8.31-4.288c5.775-2.822,11.998-5.614,18.669-7.979
		c1.668-0.591,3.34-1.221,5.068-1.737c1.717-0.547,3.448-1.097,5.216-1.581c1.758-0.513,3.536-1.006,5.344-1.441
		c0.904-0.217,1.81-0.435,2.717-0.653c0.917-0.189,1.836-0.379,2.756-0.57c7.364-1.544,15.04-2.456,22.805-2.646l0.727-0.02
		l0.518-0.006l0.342,0.006l1.369,0.024l2.737,0.047c1.895,0.065,3.945,0.215,5.904,0.327c1.917,0.181,3.82,0.376,5.713,0.616
		c1.881,0.292,3.765,0.54,5.62,0.869c1.848,0.362,3.706,0.649,5.518,1.073c1.808,0.438,3.627,0.801,5.393,1.297
		c3.553,0.916,7.028,1.919,10.382,3.069c6.737,2.209,13.021,4.888,18.858,7.598c1.464,0.668,2.893,1.357,4.29,2.05
		c1.405,0.679,2.78,1.363,4.102,2.098c2.66,1.43,5.195,2.866,7.603,4.282c1.209,0.698,2.378,1.404,3.518,2.099
		c1.144,0.686,2.254,1.368,3.31,2.078c2.128,1.391,4.121,2.743,5.974,4.038c3.729,2.553,6.831,4.993,9.365,7.01
		c2.546,2.001,4.433,3.727,5.734,4.871c1.291,1.163,1.947,1.827,1.947,1.827l0.044,0.045c0.154,0.156,0.153,0.408-0.003,0.562
		c-0.141,0.138-0.356,0.151-0.512,0.041c0,0-2.957-2.12-8.385-5.47c-5.422-3.355-13.336-7.895-23.153-12.7
		c-9.816-4.786-21.599-9.775-34.699-13.603c-6.546-1.91-13.419-3.521-20.486-4.623c-7.082-1.11-14.297-1.678-21.578-1.509
		c-14.523,0.257-28.897,3.302-41.882,7.424c-13.01,4.134-24.701,9.328-34.447,14.259c-9.745,4.95-17.609,9.575-22.999,12.984
		c-5.397,3.403-8.341,5.543-8.341,5.543c-0.177,0.129-0.426,0.089-0.555-0.088c-0.116-0.159-0.096-0.375,0.036-0.511
		L146.873,105.341z"/>
</g>
<g>
	<path fill="#FFFFFF" d="M225.957,254.174c0,0-0.716,0.773-1.909,2.149c-1.193,1.377-2.845,3.373-4.722,5.812
		c-0.459,0.619-0.956,1.246-1.423,1.932c-0.483,0.671-1.006,1.345-1.489,2.076c-0.495,0.724-1.011,1.458-1.488,2.242
		c-0.494,0.773-1.017,1.547-1.488,2.372c-0.489,0.813-0.999,1.63-1.453,2.492c-0.477,0.849-0.957,1.707-1.388,2.599
		c-0.458,0.879-0.895,1.773-1.295,2.688l-0.623,1.365l-0.574,1.403c-0.689,1.775-1.303,3.734-1.811,5.629
		c-0.513,1.911-0.928,3.827-1.296,5.697c-0.348,1.872-0.68,3.695-0.921,5.439c-0.232,1.744-0.464,3.401-0.636,4.938
		c-0.341,3.075-0.576,5.662-0.727,7.48c-0.146,1.825-0.229,2.868-0.229,2.868s-0.261-1.021-0.552-2.838
		c-0.289-1.816-0.625-4.429-0.753-7.587c-0.065-1.579-0.113-3.296-0.042-5.111c0.062-1.815,0.149-3.738,0.388-5.72
		c0.219-1.982,0.557-4.027,1.02-6.09c0.469-2.079,1.058-4.108,1.861-6.214l0.61-1.479l0.685-1.458l0.689-1.447
		c0.256-0.467,0.513-0.932,0.768-1.395c0.495-0.935,1.03-1.833,1.596-2.698c0.541-0.881,1.11-1.726,1.702-2.534
		c1.148-1.641,2.378-3.134,3.587-4.503c1.189-1.386,2.401-2.613,3.558-3.703c2.292-2.199,4.398-3.804,5.91-4.858
		C225.021,254.667,225.957,254.174,225.957,254.174z"/>
</g>
<g>
	<path fill="#FFFFFF" d="M284.249,254.174c0,0,0.935,0.493,2.447,1.549c1.512,1.054,3.618,2.659,5.91,4.858
		c1.156,1.09,2.368,2.317,3.557,3.703c1.209,1.369,2.439,2.862,3.588,4.503c0.592,0.809,1.16,1.653,1.701,2.534
		c0.565,0.865,1.102,1.764,1.596,2.698c0.255,0.463,0.512,0.928,0.768,1.395l0.689,1.447l0.684,1.458l0.611,1.479
		c0.803,2.105,1.392,4.135,1.861,6.214c0.463,2.063,0.801,4.107,1.02,6.09c0.238,1.981,0.326,3.904,0.389,5.72
		c0.07,1.815,0.022,3.532-0.043,5.111c-0.128,3.158-0.464,5.771-0.753,7.587c-0.29,1.816-0.552,2.838-0.552,2.838
		s-0.084-1.043-0.229-2.868c-0.151-1.818-0.386-4.405-0.728-7.48c-0.172-1.537-0.403-3.194-0.635-4.938
		c-0.242-1.744-0.574-3.567-0.922-5.439c-0.368-1.87-0.783-3.786-1.297-5.697c-0.508-1.895-1.121-3.854-1.811-5.629l-0.574-1.403
		l-0.623-1.365c-0.4-0.915-0.838-1.81-1.295-2.688c-0.432-0.892-0.911-1.75-1.389-2.599c-0.453-0.862-0.963-1.679-1.452-2.492
		c-0.472-0.825-0.994-1.599-1.488-2.372c-0.478-0.784-0.993-1.519-1.488-2.242c-0.483-0.731-1.007-1.405-1.489-2.076
		c-0.467-0.686-0.964-1.313-1.423-1.932c-1.877-2.439-3.528-4.435-4.722-5.812C284.964,254.948,284.249,254.174,284.249,254.174z"/>
</g>
</svg>
