<?xml version="1.0" encoding="utf-8"?>
<!-- Generator: Adobe Illustrator 16.0.3, SVG Export Plug-In . SVG Version: 6.00 Build 0)  -->
<!DOCTYPE svg PUBLIC "-//W3C//DTD SVG 1.1//EN" "http://www.w3.org/Graphics/SVG/1.1/DTD/svg11.dtd">
<svg version="1.1" id="Zebra" xmlns="http://www.w3.org/2000/svg" xmlns:xlink="http://www.w3.org/1999/xlink" x="0px" y="0px"
	 width="511.92px" height="511.92px" viewBox="0 0 511.92 511.92" enable-background="new 0 0 511.92 511.92" xml:space="preserve">
<path fill="#FFFFFF" stroke="#000000" stroke-width="13.5869" stroke-miterlimit="10" d="M1230.357,497.16"/>
<path fill-rule="evenodd" clip-rule="evenodd" stroke="#000000" stroke-width="27.9535" stroke-miterlimit="10" d="M158.153,85.045
	c25.863,19.166,30.447,45.567,43.275,71.738c6.098,11.495-23.305,42.689-36.488,38.281c-54.266-18.155-36.933-79.267-58.425-132.218
	C104.438,61.275,132.283,65.387,158.153,85.045z"/>
<path fill-rule="evenodd" clip-rule="evenodd" fill="#FFFFFF" d="M120.171,100.944c6.26,22.799,8.44,61.111,24.352,78.199
	c8.896,9.552,21.088,9.072,32.662,6.083c9.364-2.417,8.285-2.236,6.848-12.773c-3.134-23.041-8.168-52.57-23.395-68.925
	c-14.776-15.859-33.389-26.876-50.461-39.224C113.485,76.525,116.823,88.741,120.171,100.944
	C128.245,130.354,114.416,79.985,120.171,100.944z"/>
<path fill-rule="evenodd" clip-rule="evenodd" stroke="#000000" stroke-width="27.9535" stroke-miterlimit="10" d="M353.768,85.045
	c-25.863,19.166-30.448,45.567-43.275,71.738c-6.098,11.495,23.305,42.689,36.487,38.281
	c54.266-18.155,36.934-79.267,58.426-132.218C407.482,61.275,379.637,65.387,353.768,85.045z"/>
<path fill-rule="evenodd" clip-rule="evenodd" fill="#FFFFFF" d="M391.749,100.944c-6.26,22.799-8.44,61.111-24.352,78.199
	c-8.896,9.552-21.088,9.072-32.662,6.083c-9.364-2.417-8.285-2.236-6.849-12.773c3.135-23.041,8.169-52.57,23.396-68.925
	c14.776-15.859,33.389-26.876,50.461-39.224C398.436,76.525,395.098,88.741,391.749,100.944
	C383.675,130.354,397.504,79.985,391.749,100.944z"/>
<g>
	<polygon fill="#FFFFFF" points="257.082,170.418 235.845,182.066 226.465,142.097 236.295,132.715 222.736,67.456 252.16,100.881 
		254.151,66.352 271.32,99.275 294.215,77.424 284.36,124.275 298.415,151.22 282.96,194.444 	"/>
	<path d="M257.795,83.318l12.271,23.532l16.57-15.815l-7.132,33.908l13.886,26.622l-12.42,34.736l-23.188-21.529l-18.833,10.329
		l-7.389-31.488l9.773-9.328l-10.53-50.68l25.316,28.758L257.795,83.318 M250.508,49.385l-1.926,33.402l-0.381,6.612l-10.469-11.893
		l-23.063-26.198l7.101,34.174l9.488,45.664l-6.067,5.791l-3.819,3.645l1.206,5.14l7.389,31.488l2.774,11.823l10.648-5.84
		l12.995-7.127l18.309,16.999l10.257,9.523l4.712-13.179l12.42-34.736l1.358-3.798l-1.865-3.577l-12.356-23.69l6.451-30.672
		l6.125-29.122L280.265,84.36l-7.69,7.34l-6.597-12.649L250.508,49.385L250.508,49.385z"/>
</g>
<g>
	<path fill="#FFFFFF" d="M260.832,455.744l-0.777-0.118c-30.855-4.681-59.288-38.368-71.224-57.536
		c-20.939-33.623-24.739-77.188-25.709-111.385c-0.693-24.419,0.109-107.242,39.494-147.759
		c14.369-14.782,32.141-22.278,52.823-22.278c2.153,0,4.364,0.083,6.579,0.249h2.467c2.215-0.165,4.426-0.249,6.578-0.249
		c20.678,0,38.447,7.495,52.815,22.276c39.391,40.523,40.194,123.342,39.502,147.76c-0.972,34.201-4.772,77.769-25.709,111.387
		c-11.937,19.167-40.369,52.854-71.224,57.535l-0.777,0.118H260.832z"/>
	<path d="M271.063,127.095c71.422,0,83.493,102.909,81.895,159.314c-1.017,35.762-5.121,75.634-24.138,106.169
		c-13.455,21.606-39.452,49.024-63.936,52.738h-3.266c-24.483-3.714-50.481-31.132-63.936-52.738
		c-19.016-30.535-23.123-70.407-24.138-106.169c-1.6-56.408,10.46-159.326,81.894-159.314c2.008,0,4.076,0.082,6.179,0.249h3.266
		C266.991,127.177,269.051,127.095,271.063,127.095 M255.426,106.241c-23.599,0-43.878,8.554-60.282,25.427
		c-16.922,17.406-29.04,43.337-36.017,77.073c-6.616,31.993-6.867,62.765-6.428,78.26c1.008,35.512,5.02,80.855,27.281,116.603
		c15.996,25.687,46.155,57.425,78.51,62.333l1.556,0.235h1.572h3.266h1.572l1.556-0.235c32.354-4.908,62.514-36.646,78.51-62.333
		c22.259-35.741,26.272-81.088,27.282-116.601c0.438-15.495,0.187-46.263-6.432-78.257c-6.979-33.732-19.097-59.662-36.018-77.069
		c-16.405-16.877-36.69-25.435-60.292-25.435c-2.28,0-4.616,0.083-6.954,0.249h-1.715c-2.334-0.165-4.669-0.248-6.951-0.249l0,0
		C255.438,106.241,255.43,106.241,255.426,106.241L255.426,106.241z"/>
</g>
<path stroke="#000000" stroke-width="1.7067" stroke-miterlimit="10" d="M289.959,438.984c6.649-3.921,20.798-15.673,32.396-30.668
	c4.926-9.969,3.321-26.708,3.321-26.708s-0.723-8.573-5.929-12.896c-3.93-3.264-12.703-2.579-12.703-2.579
	s-8.928-1.458-11.011-13.758c-3.474-20.525-0.847-56.292-0.847-56.292s-4.715,10.12-12.704,15.882
	c-7.788,5.617-18.854,6.878-18.854,6.878h-0.377c0,0-11.066-1.261-18.854-6.878c-7.99-5.762-12.704-15.882-12.704-15.882
	s2.627,35.767-0.847,56.292c-2.082,12.3-11.01,13.758-11.01,13.758s-8.774-0.685-12.705,2.579
	c-5.206,4.323-5.928,12.896-5.928,12.896s-1.605,16.739,3.321,26.708c11.598,14.995,20.801,22.091,20.801,22.091
	s12.903,11.562,27.094,17.057c4.2,1.627,9.441,1.994,13.541,1.898s5.865-1.425,5.865-1.425S281.884,443.747,289.959,438.984z"/>
<path d="M247.375,164.086c-3.396,5.471-14.312,17.231-14.442,23.562c-0.238,11.486-0.475,22.974-0.711,34.461
	c-0.344,16.615,4.461,76.007,18.234,87.191c-1.145-30.505-10.73-76.855-7.837-107.185c1.032-10.814,5.212-20.257,9.814-30
	c1.143-2.416,4.354-6.077,3.079-8.984C253.17,157.8,248.55,160.294,247.375,164.086z"/>
<path d="M174.936,328.6c12.391-3.98,14.543-1.405,27.294,3.482c6.964,2.671,20.79,6.058,21.905,15.642
	c-10.844-6.269-22.52-10.685-34.25-14.707c-4.259-1.462-8.785-0.816-13.096-0.099C172.162,333.686,171.055,328.48,174.936,328.6
	C177.672,327.72,173.293,328.549,174.936,328.6z"/>
<path d="M270.228,180.092c-12.881-14.935-11.174,42.523-11.196,46.072c-0.153,24.625-0.331,58.972,4.409,83.196
	C274.312,271.724,270.228,219.181,270.228,180.092z"/>
<path d="M270.228,115.906c-12.881-22.351-11.174,63.638-11.196,68.949c-0.153,36.853-0.331,88.253,4.409,124.506
	C274.312,253.035,270.228,174.403,270.228,115.906z"/>
<path d="M281.91,178.517c-4.032-7.48-9.565-16.106-9.565-16.106s15.168,10.129,22.51,21.458c6.475,9.999,3.696,22.385,3.696,22.385
	l-15.267,99.095c0,0-5.086-1.358-5.381-8.271c-0.758-17.798,6.135-65.93,6.135-65.93s0.948-9.593,1.568-19.543
	c0.681-10.928-0.629-21.896-0.629-21.896S284.743,183.776,281.91,178.517z"/>
<path d="M212.464,239.829c-3.52-1.945-4.5-2.714-4.5-2.714s6.873-1.072,12.931,1.563c5.343,2.327,5.617,7.939,5.617,7.939
	l5.366,37.769c0,0-3.199,0.747-4.435-1.921c-3.186-6.862-5.623-22.311-5.623-22.311s-0.921-4.041-2.088-8.142
	c-1.282-4.505-3.74-8.522-3.74-8.522S214.941,241.197,212.464,239.829z"/>
<path d="M347.982,324.706c3.884,0.89,5.106,0.963,5.106,0.963s-4.615-5.47-10.863-7.547c-5.516-1.828-9.15,2.286-9.15,2.286
	l-27.164,25.316c0,0,1.996,2.735,4.569,1.528c6.631-3.106,17.925-13.296,17.925-13.296s3.173-2.475,6.572-4.828
	c3.73-2.588,8.067-4.003,8.067-4.003S345.25,324.079,347.982,324.706z"/>
<path d="M225.263,209.557c0.508,8.937,1.275,17.857,2.132,26.762c-9.19-19.234-15.012-40.318-6.547-60.99
	c3.441-8.404,26.384-46.331,35.194-32.198C237.424,161.629,223.676,181.726,225.263,209.557
	C225.944,221.553,224.806,201.557,225.263,209.557z"/>
<path d="M271.661,144.822c17.592-13.419,49.908,25.579,47.072,39.474c-2.193,10.753-8.352,94.746-25.985,99.285
	C299.535,238.138,333.761,160.41,271.661,144.822z"/>
<path d="M349.067,192.722c-6.775,8.824-24.274,21.847-34.139,26.788c16.134-27.992,5.914-62.002-22.402-76.53
	C323.32,137.706,343.989,168.705,349.067,192.722z"/>
<path d="M169.505,367.368c6.333-6.662,21.875-15.806,30.435-18.977c-15.66,21.636-10.052,50.676,12.13,65.294
	C186.191,415.198,171.699,387.68,169.505,367.368z"/>
<path d="M226.869,111.624c8.562,4.027,22.874,16.611,29.022,24.241c-25.964-8.032-50.853,8.608-56.137,36.919
	C188.666,146.701,208.815,121.483,226.869,111.624z"/>
<path d="M337.993,146.079c-1.724,9.702-10.013,27.286-15.629,35.358c1.368-28.449-19.807-50.047-47.192-48.858
	C296.683,115.149,324.677,129.896,337.993,146.079z"/>
<path d="M173.08,273.265c-1.975,5.797-3.372,12.175-1.661,19.85c8.75-14.486,33.212-10.337,54.77,8.903
	C214.965,279.044,189.365,274.637,173.08,273.265z"/>
<path stroke="#000000" stroke-width="1.7379" stroke-miterlimit="10" d="M184.449,189.478c6.106,11.54,13.235,22.876,23.624,30.609
	c-13.233-35.492,4.91-81.293,40.142-92.042C216.332,127.161,194.808,162.982,184.449,189.478z"/>
<path stroke="#000000" stroke-width="1.6857" stroke-miterlimit="10" d="M350.167,372.492c-8.09-9.32-17.145-18.235-28.73-23.132
	c19.451,29.854,10.065,75.92-22.462,93.361C330.353,436.709,344.872,399.112,350.167,372.492z"/>
<path d="M355.479,271.83c6.295,5.947-35.902,12.175-47.875,34.943C311.813,284.584,337.392,275.041,355.479,271.83z"/>
<path stroke="#000000" stroke-width="1.7379" stroke-miterlimit="10" d="M342.573,188.164c0,0-8.518-23.528-20.192-38.935
	c-9.886-13.044-23.226-18.365-23.226-18.365l-8.9-2.463"/>
<path d="M168.185,309.334c-2.314-4.6-0.309-6.662,3.265-10.363c7.849-8.118,16.696-2.29,24.568,2.522
	c11.513,7.037,22.334,15.443,32.67,24.254c-10.556-5.309-21.107-10.62-31.661-15.929c-4.559-2.293-9.118-4.586-13.675-6.878
	C179.083,300.79,169.145,311.244,168.185,309.334C167.368,307.715,168.86,310.681,168.185,309.334z"/>
<path d="M355.623,301.993c1.688-1.527,0.714-6.896-1.52-7.646c-6.706-2.252-14.175-2.504-20.246,1.488
	c-5.755,3.784-30.467,21.763-28.356,30.665c0.518,2.175,16.23-11.793,18.048-13.082c6.662-4.73,13.944-8.315,21.749-10.365
	C347.593,302.449,354.106,303.334,355.623,301.993C357.995,299.896,353.83,303.579,355.623,301.993z"/>
<path fill="#FFFFFF" d="M218.776,386.926c3.385-7.509,8.511-12.405,11.455-10.936c2.939,1.47,2.583,8.746-0.802,16.257
	c-3.384,7.506-8.513,12.402-11.454,10.933C215.032,401.71,215.394,394.434,218.776,386.926z"/>
<path fill="#FFFFFF" d="M298.13,392.245c3.385,7.508,8.512,12.402,11.457,10.934c2.938-1.469,2.581-8.747-0.803-16.255
	c-3.385-7.508-8.514-12.403-11.454-10.934C294.386,377.46,294.748,384.736,298.13,392.245z"/>
<g>
	<path d="M184.143,215.946c3.867,0,8.3,5.477,11.729,10.504c4.217,8.848,8.236,16.23,9.149,26.244
		c0.717,7.855-4.255,10.949-10.156,10.949c-5.372,0-11.514-2.564-14.835-6.437c-7.265-8.47-4.849-24.132-1.931-33.952
		C179.675,217.947,181.805,215.946,184.143,215.946 M184.143,208.995c-4.133,0-9.693,2.13-12.708,12.281
		c-2.427,8.17-6.964,28.469,3.318,40.457c4.546,5.301,12.628,8.862,20.111,8.862c5.387,0,10.055-1.863,13.143-5.246
		c2.135-2.339,4.551-6.543,3.936-13.286c-0.932-10.224-4.609-17.842-8.502-25.908c-0.427-0.886-0.86-1.783-1.295-2.695l-0.23-0.483
		l-0.301-0.442C197.05,215.839,191.404,208.995,184.143,208.995L184.143,208.995z"/>
</g>
<g>
	<path d="M341.862,215.946c2.338,0,4.468,2,6.044,7.309c2.919,9.82,5.335,25.482-1.93,33.952c-3.321,3.872-9.464,6.437-14.835,6.437
		c-5.902,0-10.873-3.094-10.156-10.949c0.913-10.014,4.932-17.396,9.148-26.244C333.562,221.423,337.995,215.947,341.862,215.946
		 M341.862,208.995L341.862,208.995c-7.262,0-12.907,6.844-17.472,13.54l-0.302,0.442l-0.23,0.483
		c-0.435,0.911-0.866,1.807-1.293,2.691c-3.894,8.067-7.57,15.687-8.503,25.913c-0.615,6.742,1.801,10.946,3.936,13.285
		c3.089,3.383,7.756,5.246,13.144,5.246c7.482,0,15.564-3.562,20.111-8.862c10.284-11.99,5.745-32.288,3.316-40.458
		C351.556,211.125,345.996,208.995,341.862,208.995L341.862,208.995z"/>
</g>
<path stroke="#FFFFFF" stroke-width="6" stroke-miterlimit="10" d="M195.871,226.451c-5.5-8.067-13.587-17.287-17.772-3.196
	c-2.918,9.82-5.334,25.482,1.931,33.952c6.969,8.126,26.361,10.492,24.991-4.512C204.107,242.681,200.088,235.298,195.871,226.451z"
	/>
<path stroke="#FFFFFF" stroke-width="6" stroke-miterlimit="10" d="M330.134,226.451c5.5-8.067,13.588-17.287,17.772-3.196
	c2.919,9.82,5.335,25.482-1.93,33.952c-6.97,8.126-26.361,10.492-24.991-4.512C321.898,242.681,325.917,235.298,330.134,226.451z"/>
<path fill-rule="evenodd" clip-rule="evenodd" fill="#FFFFFF" d="M809.101-69.182"/>
</svg>
