<!-- Generated by IcoMoon.io -->
<svg version="1.1" xmlns="http://www.w3.org/2000/svg" width="64" height="64" viewBox="0 0 64 64">
<title>robot-04</title>
<path d="M52.91 40.292c0.048-2.504-0.138-10.264-4.094-14.674-1.776-1.982-4.044-3.054-6.742-3.19v-0.002h-6.272v-1.776c5.776-0.938 10.018-4.066 10.018-7.782 0-2.762-2.348-5.2-5.926-6.656l1.406-3.542c0.154 0.058 0.32 0.096 0.494 0.096 0.762 0 1.38-0.618 1.38-1.378 0-0.762-0.62-1.378-1.38-1.378s-1.376 0.618-1.376 1.378c0 0.468 0.234 0.88 0.59 1.128l-3.446 2.934c-1.648-0.42-3.468-0.654-5.38-0.654-0.008 0-0.014 0-0.022 0s-0.014 0-0.020 0c-1.898 0-3.704 0.23-5.344 0.644l-3.442-2.932c0.354-0.25 0.59-0.662 0.59-1.128 0-0.762-0.618-1.38-1.38-1.38-0.76 0-1.378 0.618-1.378 1.38 0 0.76 0.618 1.378 1.378 1.378 0.176 0 0.34-0.038 0.494-0.096l1.402 3.536c-3.598 1.454-5.96 3.898-5.96 6.67 0 3.724 4.262 6.856 10.056 7.79v1.768h-6.698v0.008c-2.666 0.148-4.914 1.218-6.674 3.184-3.954 4.412-4.142 12.17-4.092 14.674-2.162 0.672-3.722 2.518-3.722 4.69 0 0.042 0.006 0.082 0.008 0.124h2.934c-0.002-0.042-0.010-0.082-0.010-0.124 0-1.124 1.16-2.034 2.584-2.034s2.586 0.91 2.586 2.034c0 0.042-0.008 0.082-0.012 0.124h2.934c0-0.042 0.006-0.082 0.006-0.124 0-1.976-1.292-3.682-3.154-4.48-0.102-2.606 0.246-9.018 3.032-12.12 0.962-1.070 2.138-1.65 3.578-1.784v18.236h1.258v4.15c-0.748 0.584-1.218 1.422-1.218 2.352 0 0.932 0.47 1.768 1.218 2.354v5.858c-1.582 0.852-2.662 2.526-2.662 4.452 5.132 0 2.552 0 10.096 0 0-1.926-1.080-3.6-2.666-4.45v-5.606c0.96-0.582 1.588-1.532 1.588-2.608s-0.628-2.024-1.588-2.606v-3.896h8.032v3.896c-0.96 0.582-1.59 1.532-1.59 2.606s0.626 2.026 1.59 2.608v5.606c-1.59 0.85-2.668 2.524-2.668 4.45 7.542 0 4.964 0 10.092 0 0-1.926-1.078-3.6-2.664-4.45v-5.86c0.75-0.582 1.222-1.42 1.222-2.354 0-0.93-0.472-1.768-1.222-2.352v-4.15h1.398v-18.242c1.472 0.118 2.668 0.702 3.646 1.79 2.788 3.1 3.134 9.514 3.034 12.12-1.864 0.796-3.156 2.502-3.156 4.48 0 0.040 0.008 0.082 0.010 0.124h2.934c-0.002-0.042-0.012-0.086-0.012-0.124 0-1.124 1.16-2.036 2.586-2.036 1.424 0 2.584 0.914 2.584 2.036 0 0.040-0.008 0.082-0.010 0.124h2.934c0-0.042 0.008-0.086 0.008-0.124-0.002-2.172-1.56-4.018-3.72-4.69zM38.144 8.978c1.294 0 2.344 1.048 2.344 2.342s-1.048 2.342-2.344 2.342c-1.292 0-2.342-1.048-2.342-2.342s1.048-2.342 2.342-2.342zM23.87 11.312c0-1.294 1.048-2.342 2.342-2.342 1.292 0 2.342 1.048 2.342 2.342 0 1.292-1.050 2.342-2.342 2.342-1.294 0.002-2.342-1.048-2.342-2.342zM27.742 15.85h4.436v0.006h4.438v1.996h-4.438v-0.008h-4.436v-1.994zM28.82 28.914h11.328v1.314h-11.328v-1.314zM28.82 31.598h11.328v1.316h-11.328v-1.316zM40.148 27.464h-11.328v-1.314h11.328v1.314zM25.624 39.124c0.944 0 1.71 0.766 1.71 1.708 0 0.34-0.102 0.654-0.272 0.92l-2.358-2.358c0.266-0.168 0.582-0.27 0.92-0.27zM23.972 36.574c0-0.338 0.102-0.652 0.274-0.918l2.356 2.356c-0.266 0.17-0.58 0.274-0.918 0.274-0.944 0-1.712-0.766-1.712-1.712zM27.12 37.494l-2.358-2.358c0.266-0.172 0.58-0.274 0.92-0.274 0.944 0 1.71 0.766 1.71 1.708 0.002 0.344-0.102 0.658-0.272 0.924zM24.704 30.846c0.266-0.168 0.58-0.272 0.918-0.272 0.944 0 1.71 0.764 1.71 1.71 0 0.336-0.102 0.652-0.272 0.918l-2.356-2.356zM25.624 26.15c0.944 0 1.71 0.764 1.71 1.708 0 0.338-0.102 0.654-0.272 0.92l-2.358-2.358c0.266-0.168 0.582-0.27 0.92-0.27zM24.186 26.94l2.358 2.358c-0.266 0.17-0.58 0.27-0.92 0.27-0.944 0-1.708-0.764-1.708-1.708-0.002-0.34 0.1-0.654 0.27-0.92zM24.186 31.366l2.358 2.356c-0.266 0.172-0.58 0.274-0.92 0.274-0.944 0-1.708-0.764-1.708-1.708-0.002-0.342 0.1-0.658 0.27-0.922zM24.186 39.914l2.358 2.358c-0.266 0.17-0.58 0.272-0.92 0.272-0.944 0-1.708-0.762-1.708-1.708-0.002-0.342 0.1-0.656 0.27-0.922zM28.82 34.438h11.328v8.106h-11.328v-8.106z"></path>
<path d="M27.59 11.312c0 0.761-0.617 1.378-1.378 1.378s-1.378-0.617-1.378-1.378c0-0.761 0.617-1.378 1.378-1.378s1.378 0.617 1.378 1.378z"></path>
<path d="M39.522 11.32c0 0.761-0.617 1.378-1.378 1.378s-1.378-0.617-1.378-1.378c0-0.761 0.617-1.378 1.378-1.378s1.378 0.617 1.378 1.378z"></path>
</svg>
