<!-- Generated by IcoMoon.io -->
<svg version="1.1" xmlns="http://www.w3.org/2000/svg" width="64" height="64" viewBox="0 0 64 64">
<title>robot-15</title>
<path d="M26.524 10.81h1.792v1.68h-1.792v-1.68z"></path>
<path d="M50.916 38.682c0.044-2.294-0.126-9.414-3.754-13.46-1.578-1.758-3.576-2.734-5.948-2.908-0.090-0.012-0.184-0.020-0.278-0.020h-5.308v-2.69h2.468c1.238 0 2.242-1.002 2.242-2.242v-0.846c1.564-0.308 2.75-1.716 2.75-3.41s-1.186-3.102-2.75-3.41v-1.294c0-1.238-1.004-2.242-2.242-2.242h-5.546v-3.012c0.558-0.268 0.946-0.832 0.946-1.492 0.004-0.914-0.738-1.656-1.652-1.656-0.916 0-1.656 0.742-1.656 1.656 0 0.66 0.388 1.224 0.946 1.492v3.012h-5.544c-1.238 0-2.242 1.004-2.242 2.242v1.296c-1.562 0.306-2.748 1.716-2.748 3.408s1.186 3.102 2.75 3.41v0.848c0 1.238 1.002 2.242 2.242 2.242h2.468v2.688h-4.934c-0.024 0-0.046 0.004-0.070 0.004v-0.004c-2.492 0.114-4.588 1.1-6.226 2.928-3.626 4.046-3.8 11.166-3.752 13.46-1.986 0.62-3.416 2.312-3.416 4.304 0 0.038 0.006 0.074 0.008 0.112h2.694c-0.004-0.038-0.010-0.074-0.010-0.112 0-1.030 1.062-1.87 2.372-1.87 1.306 0 2.372 0.836 2.372 1.87 0 0.038-0.008 0.074-0.010 0.112h2.692c0.002-0.038 0.006-0.074 0.006-0.112 0-1.814-1.186-3.376-2.892-4.112-0.094-2.388 0.226-8.272 2.78-11.116 0.37-0.41 0.774-0.742 1.214-1v15.084c0 1.236 1.002 2.24 2.242 2.24h0.704v2.354h4.83v-2.354h6.794v2.354h4.828v-2.354h0.656c1.238 0 2.242-1.002 2.242-2.24v-15.16c0.38 0.256 0.724 0.61 1.142 1.076 2.552 2.844 2.876 8.726 2.78 11.116-1.708 0.734-2.89 2.296-2.89 4.112 0 0.038 0.004 0.074 0.008 0.112h2.692c-0.004-0.038-0.010-0.074-0.010-0.112 0-1.030 1.064-1.87 2.37-1.87 1.308 0 2.376 0.836 2.376 1.87 0 0.038-0.008 0.074-0.012 0.112h2.694c0.002-0.038 0.008-0.074 0.008-0.112-0.010-1.994-1.44-3.686-3.426-4.304zM34.462 15.852v1.4h-5.234v-1.4h5.234zM34.216 9.69h4.182v3.882h-4.182v-3.882zM25.292 13.574v-3.884h4.182v3.882l-4.182 0.002zM38.118 25.426l2.164 2.162c-0.242 0.156-0.532 0.25-0.844 0.25-0.866 0-1.566-0.702-1.566-1.568-0.004-0.312 0.090-0.598 0.246-0.844zM38.118 29.966l2.164 2.164c-0.242 0.156-0.532 0.25-0.844 0.25-0.866 0-1.566-0.704-1.566-1.572-0.004-0.308 0.090-0.598 0.246-0.842zM38.118 34.722l2.164 2.164c-0.242 0.156-0.532 0.25-0.844 0.25-0.866 0-1.566-0.704-1.566-1.57-0.004-0.31 0.090-0.598 0.246-0.844zM27.844 34.022l-0.016 0.468c-0.002 0.094-0.082 0.166-0.176 0.164l-0.804-0.030c-0.094 0-0.166-0.082-0.164-0.172l0.016-0.458c-0.336-0.068-0.658-0.192-0.958-0.36-0.116-0.066-0.23-0.136-0.338-0.218l-0.316 0.292c-0.068 0.066-0.176 0.062-0.24-0.008l-0.55-0.586c-0.060-0.066-0.056-0.178 0.008-0.238l0.31-0.292c-0.268-0.404-0.44-0.862-0.508-1.338l-0.406-0.014c-0.094-0.002-0.166-0.082-0.164-0.174l0.026-0.804c0.002-0.092 0.084-0.166 0.176-0.164l0.408 0.014c0.1-0.476 0.308-0.924 0.604-1.312l-0.28-0.3c-0.030-0.034-0.046-0.076-0.044-0.122 0-0.044 0.020-0.086 0.054-0.118l0.588-0.55c0.068-0.064 0.174-0.060 0.24 0.008l0.29 0.312c0.048-0.030 0.096-0.056 0.146-0.082 0.366-0.208 0.764-0.346 1.178-0.402l0.014-0.412c0.002-0.094 0.080-0.166 0.174-0.164l0.804 0.028c0.094 0.002 0.168 0.082 0.164 0.174l-0.014 0.426c0.46 0.102 0.892 0.306 1.268 0.592l0.326-0.308c0.032-0.030 0.076-0.046 0.12-0.044 0.046 0.002 0.088 0.020 0.12 0.054l0.548 0.588c0.064 0.068 0.060 0.176-0.008 0.24l-0.336 0.316c0.252 0.392 0.416 0.836 0.482 1.296l0.476 0.016c0.094 0.002 0.168 0.082 0.164 0.174l-0.026 0.804c-0.004 0.094-0.082 0.166-0.176 0.164l-0.476-0.014c-0.096 0.452-0.288 0.878-0.562 1.25l0.324 0.346c0.064 0.068 0.062 0.176-0.008 0.236l-0.588 0.55c-0.032 0.032-0.076 0.046-0.12 0.044-0.046-0.002-0.088-0.022-0.12-0.054l-0.314-0.336c-0.398 0.27-0.846 0.446-1.316 0.518zM37.058 37.67c-0.006 0.094-0.084 0.166-0.178 0.164l-0.474-0.016c-0.096 0.452-0.288 0.876-0.564 1.252l0.324 0.346c0.064 0.068 0.060 0.176-0.008 0.24l-0.588 0.55c-0.034 0.030-0.078 0.044-0.124 0.044-0.042-0.004-0.086-0.022-0.118-0.052l-0.316-0.336c-0.394 0.262-0.844 0.434-1.312 0.508l-0.016 0.468c-0.006 0.094-0.084 0.168-0.178 0.164l-0.802-0.026c-0.094-0.006-0.168-0.084-0.166-0.178l0.016-0.456c-0.336-0.068-0.66-0.192-0.958-0.362-0.116-0.064-0.232-0.136-0.34-0.218l-0.316 0.298c-0.068 0.064-0.174 0.060-0.238-0.010l-0.55-0.59c-0.060-0.062-0.058-0.176 0.008-0.236l0.31-0.292c-0.268-0.402-0.442-0.862-0.51-1.34l-0.4-0.014c-0.094-0.004-0.166-0.082-0.164-0.176l0.028-0.804c0.002-0.094 0.082-0.166 0.176-0.164l0.406 0.014c0.1-0.474 0.308-0.922 0.606-1.312l-0.28-0.296c-0.030-0.034-0.048-0.078-0.044-0.122 0-0.044 0.020-0.090 0.052-0.12l0.588-0.548c0.068-0.062 0.176-0.060 0.24 0.008l0.292 0.308c0.046-0.030 0.096-0.052 0.144-0.082 0.364-0.206 0.764-0.344 1.178-0.402l0.014-0.41c0.004-0.094 0.082-0.166 0.176-0.164l0.806 0.028c0.090 0.002 0.164 0.082 0.16 0.174l-0.014 0.426c0.458 0.104 0.892 0.306 1.268 0.592l0.332-0.312c0.036-0.030 0.078-0.044 0.124-0.042s0.088 0.024 0.118 0.054l0.548 0.588c0.062 0.068 0.058 0.174-0.008 0.24l-0.336 0.316c0.25 0.392 0.414 0.836 0.48 1.294l0.476 0.016c0.094 0.002 0.166 0.082 0.164 0.178l-0.032 0.81zM39.438 41.674c-0.868 0-1.57-0.702-1.57-1.568 0-0.308 0.094-0.6 0.25-0.842l2.164 2.162c-0.246 0.156-0.532 0.248-0.844 0.248zM40.754 40.954l-2.162-2.164c0.244-0.156 0.534-0.25 0.846-0.25 0.864 0 1.566 0.702 1.566 1.566 0 0.312-0.092 0.602-0.25 0.848zM40.754 36.41l-2.162-2.162c0.244-0.156 0.534-0.25 0.846-0.25 0.864 0 1.566 0.706 1.566 1.568 0 0.312-0.092 0.6-0.25 0.844zM40.754 31.654l-2.162-2.164c0.244-0.156 0.534-0.25 0.846-0.25 0.864 0 1.566 0.702 1.566 1.568 0 0.314-0.092 0.602-0.25 0.846zM40.754 27.114l-2.162-2.162c0.244-0.156 0.534-0.25 0.846-0.25 0.864 0 1.566 0.702 1.566 1.568 0 0.312-0.092 0.6-0.25 0.844z"></path>
<path d="M27.444 29.026c-0.754-0.026-1.416 0.422-1.7 1.076-0.084 0.2-0.138 0.418-0.148 0.648-0.008 0.274 0.046 0.534 0.148 0.768 0.266 0.616 0.864 1.052 1.578 1.078 0.986 0.034 1.812-0.738 1.846-1.724s-0.742-1.812-1.724-1.846zM27.36 31.488c-0.374-0.012-0.666-0.326-0.654-0.7 0.014-0.374 0.328-0.666 0.702-0.654s0.666 0.328 0.654 0.7c-0.016 0.374-0.328 0.666-0.702 0.654z"></path>
<path d="M33.3 35.376c-0.756-0.028-1.416 0.422-1.7 1.078-0.086 0.2-0.14 0.418-0.146 0.646-0.008 0.276 0.044 0.534 0.146 0.768 0.264 0.616 0.866 1.052 1.578 1.078 0.986 0.036 1.812-0.738 1.846-1.722 0.034-0.99-0.738-1.816-1.724-1.848zM33.214 37.836c-0.374-0.014-0.666-0.326-0.652-0.704 0.010-0.374 0.326-0.664 0.7-0.65 0.374 0.010 0.666 0.326 0.654 0.698-0.010 0.374-0.328 0.668-0.702 0.656z"></path>
<path d="M26.208 47.012c-0.476 0-0.916 0.142-1.286 0.378l3.296 3.296c0.238-0.372 0.38-0.812 0.38-1.288 0.002-1.316-1.068-2.386-2.39-2.386z"></path>
<path d="M23.82 49.402c0 1.32 1.070 2.39 2.39 2.39 0.474 0 0.914-0.14 1.284-0.378l-3.294-3.292c-0.24 0.366-0.38 0.806-0.38 1.28z"></path>
<path d="M23.83 52.656h4.83v3.024h-4.83v-3.024z"></path>
<path d="M28.66 58.958v-2.214h-4.83v2.214c-1.878 0.902-3.18 2.82-3.18 5.042 8.362 0 5.502 0 11.19 0-0.002-2.222-1.302-4.14-3.18-5.042z"></path>
<path d="M37.834 47.012c-0.476 0-0.914 0.142-1.286 0.378l3.294 3.296c0.238-0.372 0.376-0.812 0.376-1.288 0.006-1.316-1.064-2.386-2.384-2.386z"></path>
<path d="M35.442 49.402c0 1.32 1.068 2.39 2.39 2.39 0.474 0 0.914-0.14 1.286-0.378l-3.292-3.292c-0.242 0.366-0.384 0.806-0.384 1.28z"></path>
<path d="M35.454 52.656h4.828v3.024h-4.828v-3.024z"></path>
<path d="M40.282 58.958v-2.214h-4.828v2.214c-1.878 0.902-3.178 2.82-3.178 5.042 8.362 0 5.5 0 11.19 0-0.004-2.222-1.304-4.14-3.184-5.042z"></path>
<path d="M35.372 10.81h1.792v1.68h-1.792v-1.68z"></path>
</svg>
